PCBNEW-BOARD Version 1 date 1/9/2012 9:21:04 AM

# Created by Pcbnew(2011-07-08 BZR 3044)-stable

$GENERAL
encoding utf-8
LayerCount 2
Ly 1FFF8001
EnabledLayers 1FFF8001
Links 54
NoConn 4
Di 44320 32959 79711 53471
Ndraw 43
Ntrack 203
Nzone 0
BoardThickness 630
Nmodule 27
Nnets 21
$EndGENERAL

$SHEETDESCR
Sheet A4 11700 8267
Title "OpenCurrent Layout"
Date "9 jan 2012"
Rev "AB"
Comp "Mecharobotics.Wordpress.Com"
Comment1 "Design inspired from EEVBlog.com"
Comment2 "Dustin Reynolds"
Comment3 ""
Comment4 ""
$EndSHEETDESCR

$SETUP
InternalUnit 0.000100 INCH
Layers 2
Layer[0] Back signal
Layer[15] Front signal
TrackWidth 100
TrackWidthList 100
TrackWidthList 200
TrackWidthList 300
TrackWidthList 400
TrackWidthList 500
TrackWidthList 1000
TrackClearence 100
ZoneClearence 200
TrackMinWidth 80
DrawSegmWidth 150
EdgeSegmWidth 150
ViaSize 350
ViaDrill 250
ViaMinSize 350
ViaMinDrill 200
MicroViaSize 200
MicroViaDrill 50
MicroViasAllowed 0
MicroViaMinSize 200
MicroViaMinDrill 50
TextPcbWidth 120
TextPcbSize 600 800
EdgeModWidth 80
TextModSize 600 600
TextModWidth 120
PadSize 2800 2800
PadDrill 2660
Pad2MaskClearance 100
AuxiliaryAxisOrg 0 0
PcbPlotParams (pcbplotparams (layerselection 284196865) (usegerberextensions true) (excludeedgelayer true) (linewidth 60) (plotframeref false) (viasonmask false) (mode 1) (useauxorigin false) (hpglpennumber 1) (hpglpenspeed 20) (hpglpendiameter 15) (hpglpenoverlay 2) (pscolor true) (psnegative false) (psa4output false) (plotreference true) (plotvalue true) (plotothertext true) (plotinvisibletext false) (padsonsilk false) (subtractmaskfromsilk false) (outputformat 1) (mirror false) (drillshape 1) (scaleselection 1) (outputdirectory Gerbers/Rev_AB/))
$EndSETUP

$EQUIPOT
Na 0 ""
St ~
$EndEQUIPOT
$EQUIPOT
Na 1 "/GND"
St ~
$EndEQUIPOT
$EQUIPOT
Na 2 "N-000005"
St ~
$EndEQUIPOT
$EQUIPOT
Na 3 "N-000007"
St ~
$EndEQUIPOT
$EQUIPOT
Na 4 "N-000008"
St ~
$EndEQUIPOT
$EQUIPOT
Na 5 "N-000016"
St ~
$EndEQUIPOT
$EQUIPOT
Na 6 "N-000017"
St ~
$EndEQUIPOT
$EQUIPOT
Na 7 "N-000018"
St ~
$EndEQUIPOT
$EQUIPOT
Na 8 "N-000019"
St ~
$EndEQUIPOT
$EQUIPOT
Na 9 "N-000020"
St ~
$EndEQUIPOT
$EQUIPOT
Na 10 "N-000021"
St ~
$EndEQUIPOT
$EQUIPOT
Na 11 "N-000022"
St ~
$EndEQUIPOT
$EQUIPOT
Na 12 "N-000023"
St ~
$EndEQUIPOT
$EQUIPOT
Na 13 "N-000025"
St ~
$EndEQUIPOT
$EQUIPOT
Na 14 "N-000026"
St ~
$EndEQUIPOT
$EQUIPOT
Na 15 "N-000027"
St ~
$EndEQUIPOT
$EQUIPOT
Na 16 "N-000028"
St ~
$EndEQUIPOT
$EQUIPOT
Na 17 "N-000030"
St ~
$EndEQUIPOT
$EQUIPOT
Na 18 "N-000031"
St ~
$EndEQUIPOT
$EQUIPOT
Na 19 "VCC"
St ~
$EndEQUIPOT
$EQUIPOT
Na 20 "VSS"
St ~
$EndEQUIPOT
$NCLASS
Name "Default"
Desc "This is the default net class."
Clearance 100
TrackWidth 100
ViaDia 350
ViaDrill 250
uViaDia 200
uViaDrill 50
AddNet ""
AddNet "/GND"
AddNet "N-000005"
AddNet "N-000007"
AddNet "N-000008"
AddNet "N-000016"
AddNet "N-000017"
AddNet "N-000018"
AddNet "N-000019"
AddNet "N-000020"
AddNet "N-000021"
AddNet "N-000022"
AddNet "N-000023"
AddNet "N-000025"
AddNet "N-000026"
AddNet "N-000027"
AddNet "N-000028"
AddNet "N-000030"
AddNet "N-000031"
AddNet "VCC"
AddNet "VSS"
$EndNCLASS
$NCLASS
Name "Wide"
Desc ""
Clearance 100
TrackWidth 200
ViaDia 350
ViaDrill 250
uViaDia 200
uViaDrill 50
$EndNCLASS
$MODULE SOIC8
Po 62400 46720 2700 15 4ED72536 4EC4A827 ~~
Li SOIC8
Sc 4EC4A827
AR /4EB5DCBA
Op 0 0 0
T0 1430 680 300 300 2700 75 N V 21 N "U3"
T1 165 2145 600 600 2700 120 N I 21 N "MAX4239ASA+"
DC 815 -120 865 -100 150 21
DS -960 -315 -1120 -315 150 21
DS -1120 -315 -1120 430 150 21
DS -1120 430 -945 430 150 21
DS 1025 -325 1150 -325 150 21
DS 1155 -325 1155 445 150 21
DS 1150 460 1025 460 150 21
$PAD
Sh "4" R 209 780 0 0 2700
Dr 0 0 0
At SMD N 00888000
Ne 20 "VSS"
Po -735 -900
$EndPAD
$PAD
Sh "3" R 209 780 0 0 2700
Dr 0 0 0
At SMD N 00888000
Ne 11 "N-000022"
Po -235 -900
$EndPAD
$PAD
Sh "2" R 209 780 0 0 2700
Dr 0 0 0
At SMD N 00888000
Ne 5 "N-000016"
Po 265 -900
$EndPAD
$PAD
Sh "1" R 209 780 0 0 2700
Dr 0 0 0
At SMD N 00888000
Ne 19 "VCC"
Po 765 -900
$EndPAD
$PAD
Sh "5" R 209 780 0 0 2700
Dr 0 0 0
At SMD N 00888000
Ne 0 ""
Po -735 1041
$EndPAD
$PAD
Sh "6" R 209 780 0 0 2700
Dr 0 0 0
At SMD N 00888000
Ne 7 "N-000018"
Po -235 1041
$EndPAD
$PAD
Sh "7" R 209 780 0 0 2700
Dr 0 0 0
At SMD N 00888000
Ne 19 "VCC"
Po 265 1041
$EndPAD
$PAD
Sh "8" R 209 780 0 0 2700
Dr 0 0 0
At SMD N 00888000
Ne 0 ""
Po 765 1041
$EndPAD
$EndMODULE  SOIC8
$MODULE R_1206_Sense
Po 57090 47590 0 15 4ED72331 4EC4A826 ~~
Li R_1206_Sense
Sc 4EC4A826
AR /4EC5E90D
Op 0 0 0
T0 10 -830 250 250 0 50 N V 21 N "R4"
T1 280 1175 600 600 0 120 N I 21 N "10m_5%"
$PAD
Sh "2" R 689 433 0 0 0
Dr 0 0 0
At SMD N 00888000
Ne 1 "/GND"
Po -525 -355
$EndPAD
$PAD
Sh "1" R 689 433 0 0 0
Dr 0 0 0
At SMD N 00888000
Ne 4 "N-000008"
Po 558 -355
$EndPAD
$PAD
Sh "4" R 689 433 0 0 0
Dr 0 0 0
At SMD N 00888000
Ne 17 "N-000030"
Po -525 196
$EndPAD
$PAD
Sh "3" R 689 433 0 0 0
Dr 0 0 0
At SMD N 00888000
Ne 15 "N-000027"
Po 558 196
$EndPAD
$EndMODULE  R_1206_Sense
$MODULE SM0805
Po 66070 47670 900 15 4ED7253D 4EC4A825 ~~
Li SM0805
Sc 4EC4A825
AR /4EB60BCA
Op 0 0 0
At SMD 
T0 30 -540 250 250 900 50 N V 21 N "C1"
T1 0 0 250 250 900 50 N I 21 N "0.1u_16_V"
DC -650 300 -650 250 50 21
DS -200 300 -600 300 50 21
DS -600 300 -600 -300 50 21
DS -600 -300 -200 -300 50 21
DS 200 -300 600 -300 50 21
DS 600 -300 600 300 50 21
DS 600 300 200 300 50 21
$PAD
Sh "1" R 350 550 0 0 900
Dr 0 0 0
At SMD N 00888000
Ne 19 "VCC"
Po -375 0
$EndPAD
$PAD
Sh "2" R 350 550 0 0 900
Dr 0 0 0
At SMD N 00888000
Ne 20 "VSS"
Po 375 0
$EndPAD
$SHAPE3D
Na "smd/chip_cms.wrl"
Sc 0.100000 0.100000 0.100000
Of 0.000000 0.000000 0.000000
Ro 0.000000 0.000000 0.000000
$EndSHAPE3D
$EndMODULE  SM0805
$MODULE SM0805
Po 59780 46610 900 15 4ED72338 4EC4A823 ~~
Li SM0805
Sc 4EC4A823
AR /4EB60D39
Op 0 0 0
At SMD 
T0 40 -550 250 250 900 50 N V 21 N "C2"
T1 0 0 250 250 900 50 N I 21 N "0.1u_6V"
DC -650 300 -650 250 50 21
DS -200 300 -600 300 50 21
DS -600 300 -600 -300 50 21
DS -600 -300 -200 -300 50 21
DS 200 -300 600 -300 50 21
DS 600 -300 600 300 50 21
DS 600 300 200 300 50 21
$PAD
Sh "1" R 350 550 0 0 900
Dr 0 0 0
At SMD N 00888000
Ne 19 "VCC"
Po -375 0
$EndPAD
$PAD
Sh "2" R 350 550 0 0 900
Dr 0 0 0
At SMD N 00888000
Ne 1 "/GND"
Po 375 0
$EndPAD
$SHAPE3D
Na "smd/chip_cms.wrl"
Sc 0.100000 0.100000 0.100000
Of 0.000000 0.000000 0.000000
Ro 0.000000 0.000000 0.000000
$EndSHAPE3D
$EndMODULE  SM0805
$MODULE SM0805
Po 65520 44420 2700 15 4ED72347 4EC4A821 ~~
Li SM0805
Sc 4EC4A821
AR /4EB60CF9
Op 0 0 0
At SMD 
T0 -10 -560 250 250 2700 50 N V 21 N "C3"
T1 0 0 250 250 2700 50 N I 21 N "0.1u_6V"
DC -650 300 -650 250 50 21
DS -200 300 -600 300 50 21
DS -600 300 -600 -300 50 21
DS -600 -300 -200 -300 50 21
DS 200 -300 600 -300 50 21
DS 600 -300 600 300 50 21
DS 600 300 200 300 50 21
$PAD
Sh "1" R 350 550 0 0 2700
Dr 0 0 0
At SMD N 00888000
Ne 1 "/GND"
Po -375 0
$EndPAD
$PAD
Sh "2" R 350 550 0 0 2700
Dr 0 0 0
At SMD N 00888000
Ne 20 "VSS"
Po 375 0
$EndPAD
$SHAPE3D
Na "smd/chip_cms.wrl"
Sc 0.100000 0.100000 0.100000
Of 0.000000 0.000000 0.000000
Ro 0.000000 0.000000 0.000000
$EndSHAPE3D
$EndMODULE  SM0805
$MODULE SM0805
Po 55720 49000 0 15 4ED723C3 4EC4A81F ~~
Li SM0805
Sc 4EC4A81F
AR /4EB60863
Op 0 0 0
At SMD 
T0 20 -520 250 250 0 50 N V 21 N "R1"
T1 0 0 250 250 0 50 N I 21 N "10K_0.1%"
DC -650 300 -650 250 50 21
DS -200 300 -600 300 50 21
DS -600 300 -600 -300 50 21
DS -600 -300 -200 -300 50 21
DS 200 -300 600 -300 50 21
DS 600 -300 600 300 50 21
DS 600 300 200 300 50 21
$PAD
Sh "1" R 350 550 0 0 0
Dr 0 0 0
At SMD N 00888000
Ne 14 "N-000026"
Po -375 0
$EndPAD
$PAD
Sh "2" R 350 550 0 0 0
Dr 0 0 0
At SMD N 00888000
Ne 17 "N-000030"
Po 375 0
$EndPAD
$SHAPE3D
Na "smd/chip_cms.wrl"
Sc 0.100000 0.100000 0.100000
Of 0.000000 0.000000 0.000000
Ro 0.000000 0.000000 0.000000
$EndSHAPE3D
$EndMODULE  SM0805
$MODULE SM0805
Po 57430 49010 1800 15 4ED723BC 4ED70F80 ~~
Li SM0805
Sc 4ED70F80
AR /4EB608EA
Op 0 0 0
At SMD 
T0 -10 530 250 250 1800 50 N V 21 N "R2"
T1 0 0 250 250 1800 50 N I 21 N "10R_0.1%"
DC -650 300 -650 250 50 21
DS -200 300 -600 300 50 21
DS -600 300 -600 -300 50 21
DS -600 -300 -200 -300 50 21
DS 200 -300 600 -300 50 21
DS 600 -300 600 300 50 21
DS 600 300 200 300 50 21
$PAD
Sh "1" R 350 550 0 0 1800
Dr 0 0 0
At SMD N 00888000
Ne 16 "N-000028"
Po -375 0
$EndPAD
$PAD
Sh "2" R 350 550 0 0 1800
Dr 0 0 0
At SMD N 00888000
Ne 17 "N-000030"
Po 375 0
$EndPAD
$SHAPE3D
Na "smd/chip_cms.wrl"
Sc 0.100000 0.100000 0.100000
Of 0.000000 0.000000 0.000000
Ro 0.000000 0.000000 0.000000
$EndSHAPE3D
$EndMODULE  SM0805
$MODULE SM0805
Po 61510 49470 900 15 4ED72373 4EC4A81B ~~
Li SM0805
Sc 4EC4A81B
AR /4EB5EC27
Op 0 0 0
At SMD 
T0 10 -510 250 250 900 50 N V 21 N "R3"
T1 0 0 250 250 900 50 N I 21 N "470"
DC -650 300 -650 250 50 21
DS -200 300 -600 300 50 21
DS -600 300 -600 -300 50 21
DS -600 -300 -200 -300 50 21
DS 200 -300 600 -300 50 21
DS 600 -300 600 300 50 21
DS 600 300 200 300 50 21
$PAD
Sh "1" R 350 550 0 0 900
Dr 0 0 0
At SMD N 00888000
Ne 9 "N-000020"
Po -375 0
$EndPAD
$PAD
Sh "2" R 350 550 0 0 900
Dr 0 0 0
At SMD N 00888000
Ne 10 "N-000021"
Po 375 0
$EndPAD
$SHAPE3D
Na "smd/chip_cms.wrl"
Sc 0.100000 0.100000 0.100000
Of 0.000000 0.000000 0.000000
Ro 0.000000 0.000000 0.000000
$EndSHAPE3D
$EndMODULE  SM0805
$MODULE SM0805
Po 66500 46110 0 15 4ED72391 4EC4A819 ~~
Li SM0805
Sc 4EC4A819
AR /4EB60A89
Op 0 0 0
At SMD 
T0 30 560 250 250 0 50 N V 21 N "R5"
T1 0 0 250 250 0 50 N I 21 N "100K_1%"
DC -650 300 -650 250 50 21
DS -200 300 -600 300 50 21
DS -600 300 -600 -300 50 21
DS -600 -300 -200 -300 50 21
DS 200 -300 600 -300 50 21
DS 600 -300 600 300 50 21
DS 600 300 200 300 50 21
$PAD
Sh "1" R 350 550 0 0 0
Dr 0 0 0
At SMD N 00888000
Ne 19 "VCC"
Po -375 0
$EndPAD
$PAD
Sh "2" R 350 550 0 0 0
Dr 0 0 0
At SMD N 00888000
Ne 18 "N-000031"
Po 375 0
$EndPAD
$SHAPE3D
Na "smd/chip_cms.wrl"
Sc 0.100000 0.100000 0.100000
Of 0.000000 0.000000 0.000000
Ro 0.000000 0.000000 0.000000
$EndSHAPE3D
$EndMODULE  SM0805
$MODULE SM0805
Po 66870 44760 900 15 4ED7239B 4EC4A817 ~~
Li SM0805
Sc 4EC4A817
AR /4EB60A8B
Op 0 0 0
At SMD 
T0 -220 -510 250 250 900 50 N V 21 N "R6"
T1 0 0 250 250 900 50 N I 21 N "100K_1%"
DC -650 300 -650 250 50 21
DS -200 300 -600 300 50 21
DS -600 300 -600 -300 50 21
DS -600 -300 -200 -300 50 21
DS 200 -300 600 -300 50 21
DS 600 -300 600 300 50 21
DS 600 300 200 300 50 21
$PAD
Sh "1" R 350 550 0 0 900
Dr 0 0 0
At SMD N 00888000
Ne 18 "N-000031"
Po -375 0
$EndPAD
$PAD
Sh "2" R 350 550 0 0 900
Dr 0 0 0
At SMD N 00888000
Ne 20 "VSS"
Po 375 0
$EndPAD
$SHAPE3D
Na "smd/chip_cms.wrl"
Sc 0.100000 0.100000 0.100000
Of 0.000000 0.000000 0.000000
Ro 0.000000 0.000000 0.000000
$EndSHAPE3D
$EndMODULE  SM0805
$MODULE SM0805
Po 64700 46780 900 15 4ED72545 4EC4A815 ~~
Li SM0805
Sc 4EC4A815
AR /4EB60C4E
Op 0 0 0
At SMD 
T0 0 560 250 250 900 50 N V 21 N "R7"
T1 0 0 250 250 900 50 N I 21 N "100R_1%"
DC -650 300 -650 250 50 21
DS -200 300 -600 300 50 21
DS -600 300 -600 -300 50 21
DS -600 -300 -200 -300 50 21
DS 200 -300 600 -300 50 21
DS 600 -300 600 300 50 21
DS 600 300 200 300 50 21
$PAD
Sh "1" R 350 550 0 0 900
Dr 0 0 0
At SMD N 00888000
Ne 2 "N-000005"
Po -375 0
$EndPAD
$PAD
Sh "2" R 350 550 0 0 900
Dr 0 0 0
At SMD N 00888000
Ne 11 "N-000022"
Po 375 0
$EndPAD
$SHAPE3D
Na "smd/chip_cms.wrl"
Sc 0.100000 0.100000 0.100000
Of 0.000000 0.000000 0.000000
Ro 0.000000 0.000000 0.000000
$EndSHAPE3D
$EndMODULE  SM0805
$MODULE SM0805
Po 67830 44740 2700 15 4ED723A2 4EC4A813 ~~
Li SM0805
Sc 4EC4A813
AR /4EB60B69
Op 0 0 0
At SMD 
T0 -20 -540 250 250 2700 50 N V 21 N "R8"
T1 0 0 250 250 2700 50 N I 21 N "100R_1%"
DC -650 300 -650 250 50 21
DS -200 300 -600 300 50 21
DS -600 300 -600 -300 50 21
DS -600 -300 -200 -300 50 21
DS 200 -300 600 -300 50 21
DS 600 -300 600 300 50 21
DS 600 300 200 300 50 21
$PAD
Sh "1" R 350 550 0 0 2700
Dr 0 0 0
At SMD N 00888000
Ne 1 "/GND"
Po -375 0
$EndPAD
$PAD
Sh "2" R 350 550 0 0 2700
Dr 0 0 0
At SMD N 00888000
Ne 12 "N-000023"
Po 375 0
$EndPAD
$SHAPE3D
Na "smd/chip_cms.wrl"
Sc 0.100000 0.100000 0.100000
Of 0.000000 0.000000 0.000000
Ro 0.000000 0.000000 0.000000
$EndSHAPE3D
$EndMODULE  SM0805
$MODULE SM0805
Po 64250 43940 900 15 4ED7234D 4EC4A811 ~~
Li SM0805
Sc 4EC4A811
AR /4EB60C5F
Op 0 0 0
At SMD 
T0 -30 560 250 250 900 50 N V 21 N "R9"
T1 0 0 250 250 900 50 N I 21 N "1K_0.1%"
DC -650 300 -650 250 50 21
DS -200 300 -600 300 50 21
DS -600 300 -600 -300 50 21
DS -600 -300 -200 -300 50 21
DS 200 -300 600 -300 50 21
DS 600 -300 600 300 50 21
DS 600 300 200 300 50 21
$PAD
Sh "1" R 350 550 0 0 900
Dr 0 0 0
At SMD N 00888000
Ne 5 "N-000016"
Po -375 0
$EndPAD
$PAD
Sh "2" R 350 550 0 0 900
Dr 0 0 0
At SMD N 00888000
Ne 1 "/GND"
Po 375 0
$EndPAD
$SHAPE3D
Na "smd/chip_cms.wrl"
Sc 0.100000 0.100000 0.100000
Of 0.000000 0.000000 0.000000
Ro 0.000000 0.000000 0.000000
$EndSHAPE3D
$EndMODULE  SM0805
$MODULE SM0805
Po 63030 44790 0 15 4ED72362 4EC4A80F ~~
Li SM0805
Sc 4EC4A80F
AR /4EB60D7B
Op 0 0 0
At SMD 
T0 30 -520 250 250 0 50 N V 21 N "R10"
T1 0 0 250 250 0 50 N I 21 N "75K_0.1%"
DC -650 300 -650 250 50 21
DS -200 300 -600 300 50 21
DS -600 300 -600 -300 50 21
DS -600 -300 -200 -300 50 21
DS 200 -300 600 -300 50 21
DS 600 -300 600 300 50 21
DS 600 300 200 300 50 21
$PAD
Sh "1" R 350 550 0 0 0
Dr 0 0 0
At SMD N 00888000
Ne 6 "N-000017"
Po -375 0
$EndPAD
$PAD
Sh "2" R 350 550 0 0 0
Dr 0 0 0
At SMD N 00888000
Ne 5 "N-000016"
Po 375 0
$EndPAD
$SHAPE3D
Na "smd/chip_cms.wrl"
Sc 0.100000 0.100000 0.100000
Of 0.000000 0.000000 0.000000
Ro 0.000000 0.000000 0.000000
$EndSHAPE3D
$EndMODULE  SM0805
$MODULE SM0805
Po 61490 44790 0 15 4ED72369 4EC4A80D ~~
Li SM0805
Sc 4EC4A80D
AR /4EB60D76
Op 0 0 0
At SMD 
T0 0 -520 250 250 0 50 N V 21 N "R11"
T1 0 0 250 250 0 50 N I 21 N "24K_0.1%"
DC -650 300 -650 250 50 21
DS -200 300 -600 300 50 21
DS -600 300 -600 -300 50 21
DS -600 -300 -200 -300 50 21
DS 200 -300 600 -300 50 21
DS 600 -300 600 300 50 21
DS 600 300 200 300 50 21
$PAD
Sh "1" R 350 550 0 0 0
Dr 0 0 0
At SMD N 00888000
Ne 7 "N-000018"
Po -375 0
$EndPAD
$PAD
Sh "2" R 350 550 0 0 0
Dr 0 0 0
At SMD N 00888000
Ne 6 "N-000017"
Po 375 0
$EndPAD
$SHAPE3D
Na "smd/chip_cms.wrl"
Sc 0.100000 0.100000 0.100000
Of 0.000000 0.000000 0.000000
Ro 0.000000 0.000000 0.000000
$EndSHAPE3D
$EndMODULE  SM0805
$MODULE SM0805
Po 68010 43400 1800 15 4ED723AA 4EC4A80B ~~
Li SM0805
Sc 4EC4A80B
AR /4EB60D69
Op 0 0 0
At SMD 
T0 0 510 250 250 1800 50 N V 21 N "R12"
T1 0 0 250 250 1800 50 N I 21 N "100R_1%"
DC -650 300 -650 250 50 21
DS -200 300 -600 300 50 21
DS -600 300 -600 -300 50 21
DS -600 -300 -200 -300 50 21
DS 200 -300 600 -300 50 21
DS 600 -300 600 300 50 21
DS 600 300 200 300 50 21
$PAD
Sh "1" R 350 550 0 0 1800
Dr 0 0 0
At SMD N 00888000
Ne 13 "N-000025"
Po -375 0
$EndPAD
$PAD
Sh "2" R 350 550 0 0 1800
Dr 0 0 0
At SMD N 00888000
Ne 7 "N-000018"
Po 375 0
$EndPAD
$SHAPE3D
Na "smd/chip_cms.wrl"
Sc 0.100000 0.100000 0.100000
Of 0.000000 0.000000 0.000000
Ro 0.000000 0.000000 0.000000
$EndSHAPE3D
$EndMODULE  SM0805
$MODULE DP3T
Po 66840 51200 0 15 4ED7228E 4EC4A80A ~~
Li DP3T
Sc 4EC4A80A
AR /4EB5EEDA
Op 0 0 0
T0 -1150 -1600 600 600 0 120 N V 21 N "SW1"
T1 -1110 1740 600 600 0 120 N I 21 N "DP3T"
DS -2240 -1160 -2240 1130 150 21
DS -2240 1130 2320 1130 150 21
DS 2320 1130 2320 -1130 150 21
DS 2310 -1160 -2250 -1160 150 21
$PAD
Sh "1" C 500 500 0 0 0
Dr 360 0 0
At STD N 00E0FFFF
Ne 0 ""
Po -1540 -660
$EndPAD
$PAD
Sh "5" C 500 500 0 0 0
Dr 360 0 0
At STD N 00E0FFFF
Ne 0 ""
Po -1540 640
$EndPAD
$PAD
Sh "2" C 500 500 0 0 0
Dr 360 0 0
At STD N 00E0FFFF
Ne 19 "VCC"
Po -750 -660
$EndPAD
$PAD
Sh "6" C 500 500 0 0 0
Dr 360 0 0
At STD N 00E0FFFF
Ne 3 "N-000007"
Po -750 640
$EndPAD
$PAD
Sh "3" C 500 500 0 0 0
Dr 360 0 0
At STD N 00E0FFFF
Ne 8 "N-000019"
Po 820 -660
$EndPAD
$PAD
Sh "7" C 500 500 0 0 0
Dr 360 0 0
At STD N 00E0FFFF
Ne 8 "N-000019"
Po 820 640
$EndPAD
$PAD
Sh "4" C 500 500 0 0 0
Dr 360 0 0
At STD N 00E0FFFF
Ne 19 "VCC"
Po 1610 -660
$EndPAD
$PAD
Sh "8" C 500 500 0 0 0
Dr 360 0 0
At STD N 00E0FFFF
Ne 0 ""
Po 1610 640
$EndPAD
$EndMODULE  DP3T
$MODULE DP3T
Po 57900 51200 0 15 4ED72284 4EC4A808 ~~
Li DP3T
Sc 4EC4A808
AR /4EB5EEEA
Op 0 0 0
T0 -1150 -1600 600 600 0 120 N V 21 N "SW2"
T1 -1110 1740 600 600 0 120 N I 21 N "DP3T"
DS -2240 -1160 -2240 1130 150 21
DS -2240 1130 2320 1130 150 21
DS 2320 1130 2320 -1130 150 21
DS 2310 -1160 -2250 -1160 150 21
$PAD
Sh "1" C 500 500 0 0 0
Dr 360 0 0
At STD N 00E0FFFF
Ne 0 ""
Po -1540 -660
$EndPAD
$PAD
Sh "5" C 500 500 0 0 0
Dr 360 0 0
At STD N 00E0FFFF
Ne 14 "N-000026"
Po -1540 640
$EndPAD
$PAD
Sh "2" C 500 500 0 0 0
Dr 360 0 0
At STD N 00E0FFFF
Ne 16 "N-000028"
Po -750 -660
$EndPAD
$PAD
Sh "6" C 500 500 0 0 0
Dr 360 0 0
At STD N 00E0FFFF
Ne 16 "N-000028"
Po -750 640
$EndPAD
$PAD
Sh "3" C 500 500 0 0 0
Dr 360 0 0
At STD N 00E0FFFF
Ne 14 "N-000026"
Po 820 -660
$EndPAD
$PAD
Sh "7" C 500 500 0 0 0
Dr 360 0 0
At STD N 00E0FFFF
Ne 2 "N-000005"
Po 820 640
$EndPAD
$PAD
Sh "4" C 500 500 0 0 0
Dr 360 0 0
At STD N 00E0FFFF
Ne 15 "N-000027"
Po 1610 -660
$EndPAD
$PAD
Sh "8" C 500 500 0 0 0
Dr 360 0 0
At STD N 00E0FFFF
Ne 4 "N-000008"
Po 1610 640
$EndPAD
$EndMODULE  DP3T
$MODULE Battery2032SMD
Po 60830 39140 440 15 4ED72279 4EC4A806 ~~
Li Battery2032SMD
Sc 4EC4A806
AR /4EB5D52A
Op 0 0 0
T0 40 -1180 600 600 440 120 N V 21 N "BT1"
T1 360 1300 600 600 440 120 N I 21 N "2032_3V_Lithium_Battery"
DS 4280 -1690 5220 -1690 150 21
DC 10 60 3490 2200 150 21
DS -5330 -1630 -4220 -1630 150 21
DS -4760 -2170 -4760 -1010 150 21
$PAD
Sh "1" R 1400 1400 0 0 440
Dr 0 0 0
At SMD N 00888000
Ne 8 "N-000019"
Po -6100 60
$EndPAD
$PAD
Sh "2" R 1400 1400 0 0 440
Dr 0 0 0
At SMD N 00888000
Ne 20 "VSS"
Po 6100 60
$EndPAD
$EndMODULE  Battery2032SMD
$MODULE Case
Po 47960 34830 0 15 4ED7285A 4EC4A807 ~~
Li Case
Sc 4EC4A807
AR /4EC363E9
Op 0 0 0
T0 7630 -990 600 600 0 120 N I 21 N "P1"
T1 5840 -1030 600 600 0 120 N I 21 N "CASE"
DS -1590 18390 -1590 -1620 150 21
DS 29760 18390 -1590 18390 150 21
DS 29760 -1620 29760 18390 150 21
DS -1590 -1620 29760 -1620 150 21
$PAD
Sh "1" C 1570 1570 0 0 0
Dr 995 0 0
At STD N 00E0FFFF
Ne 0 ""
Po 110 80
$EndPAD
$PAD
Sh "2" C 1570 1570 0 0 0
Dr 995 0 0
At STD N 00E0FFFF
Ne 0 ""
Po 110 16690
$EndPAD
$PAD
Sh "3" C 1570 1570 0 0 0
Dr 995 0 0
At STD N 00E0FFFF
Ne 0 ""
Po 28060 80
$EndPAD
$PAD
Sh "4" C 1570 1570 0 0 0
Dr 995 0 0
At STD N 00E0FFFF
Ne 0 ""
Po 28060 16690
$EndPAD
$EndMODULE  Case
$MODULE 1206_Reverse_LED
Po 62370 51380 0 15 4ED9BF47 4EC4A7FE ~~
Li 1206_Reverse_LED
Sc 4EC4A7FE
AR /4EB5EC36
Op 0 0 0
T0 1580 1070 600 600 0 120 N V 21 N "D1"
T1 -410 -1060 600 600 0 120 N I 21 N "LED"
DS 540 530 1160 530 150 21
DS 1220 530 1240 530 150 21
DS 1180 530 1240 530 150 21
DS 1240 520 1240 -540 150 21
DS 1240 -540 540 -540 150 21
DS 540 -540 710 -540 150 21
DS -1260 530 -560 530 150 21
DS -1260 -550 -1260 530 150 21
DS -580 -550 -1250 -550 150 21
$PAD
Sh "1" R 350 630 0 0 0
Dr 0 0 0
At SMD N 00888000
Ne 9 "N-000020"
Po -830 0
$EndPAD
$PAD
Sh "2" R 350 630 0 0 0
Dr 0 0 0
At SMD N 00888000
Ne 20 "VSS"
Po 820 0
$EndPAD
$PAD
Sh "3" C 1000 1000 0 0 0
Dr 1000 0 0
At STD N 0000FFFF
Ne 0 ""
Po -5 0
$EndPAD
$EndMODULE  1206_Reverse_LED
$MODULE SOT23_3
Po 62800 49410 0 15 4ED9A335 4ED7188D ~~
Li SOT23_3
Kw SOT23_5
Sc 4ED7188D
AR /4ED7182C
Op 0 0 0
T0 1090 30 300 300 0 30 N V 21 N "U4"
T1 1200 -320 197 197 0 30 N I 21 N "TPS3809_AB"
DS 666 370 726 370 10 21
DS 726 370 726 -170 10 21
DS 726 -170 296 -170 10 21
DS -682 364 -758 364 10 21
DS -758 364 -758 -158 10 21
DS -758 -158 -316 -158 10 21
$PAD
Sh "3" R 394 551 0 0 0
Dr 0 0 0
At SMD N 00888000
Ne 3 "N-000007"
Po -8 -440
$EndPAD
$PAD
Sh "2" R 394 551 0 0 0
Dr 0 0 0
At SMD N 00888000
Ne 10 "N-000021"
Po 366 426
$EndPAD
$PAD
Sh "1" R 394 551 0 0 0
Dr 0 0 0
At SMD N 00888000
Ne 20 "VSS"
Po -382 426
$EndPAD
$EndMODULE  SOT23_3
$MODULE SOT23-5_AA
Po 67180 47190 2700 15 4ED9AE83 4EC4A828 ~~
Li SOT23-5_AA
Sc 4EC4A828
AR /4EB5DAA1
Op 0 0 0
T0 1630 -570 600 600 2700 120 N V 21 N "U2"
T1 2170 -1300 600 600 2700 120 N I 21 N "LMV321AS5X"
DC -90 -360 -80 -350 80 21
DS -160 -250 950 -250 80 21
DS 950 -250 950 -810 80 21
DS 950 -810 -200 -810 80 21
DS -200 -810 -200 -250 80 21
DS -200 -250 -150 -250 80 21
$PAD
Sh "1" R 236 413 0 0 2700
Dr 0 0 0
At SMD N 00888000
Ne 18 "N-000031"
Po 0 0
.SolderPaste -28
.LocalClearance 60
$EndPAD
$PAD
Sh "2" R 236 413 0 0 2700
Dr 0 0 0
At SMD N 00888000
Ne 20 "VSS"
Po 374 0
.LocalClearance 60
$EndPAD
$PAD
Sh "3" R 236 413 0 0 2700
Dr 0 0 0
At SMD N 00888000
Ne 12 "N-000023"
Po 748 0
.LocalClearance 60
$EndPAD
$PAD
Sh "5" R 236 413 0 0 2700
Dr 0 0 0
At SMD N 00888000
Ne 19 "VCC"
Po 0 -1063
.LocalClearance 60
$EndPAD
$PAD
Sh "4" R 236 413 0 0 2700
Dr 0 0 0
At SMD N 00888000
Ne 12 "N-000023"
Po 748 -1063
.LocalClearance 60
$EndPAD
$EndMODULE  SOT23-5_AA
$MODULE banana_jack_8-32
Po 52650 39465 1800 15 4ED9BD1D 4EC4A803 ~~
Li banana_jack_8-32
Sc 4EC4A803
AR /4EB5F025
Op 0 0 0
T0 -2570 1665 600 600 1800 120 N V 21 N "J2"
T1 35 75 600 600 1800 120 N I 21 N "4MM_SOCKET"
$PAD
Sh "1" R 4000 4000 0 0 1800
Dr 0 0 0
At SMD N 00888000
Ne 17 "N-000030"
Po 0 0
$EndPAD
$PAD
Sh "2" R 3200 3000 0 0 1800
Dr 0 0 0
At SMD N 00888000
Ne 17 "N-000030"
Po 4080 0
$EndPAD
$PAD
Sh "3" C 1900 1900 0 0 1800
Dr 1770 0 0
At STD N 00E0FFFF
Ne 17 "N-000030"
Po 0 0
$EndPAD
$EndMODULE  banana_jack_8-32
$MODULE banana_jack_8-32
Po 52650 46965 1800 15 4ED9BD10 4ED6FFD3 ~~
Li banana_jack_8-32
Sc 4ED6FFD3
AR /4EB5F021
Op 0 0 0
T0 -2610 1645 600 600 1800 120 N V 21 N "J1"
T1 35 75 600 600 1800 120 N I 21 N "4MM_SOCKET"
$PAD
Sh "1" R 4000 4000 0 0 1800
Dr 0 0 0
At SMD N 00888000
Ne 14 "N-000026"
Po 0 0
$EndPAD
$PAD
Sh "2" R 3200 3000 0 0 1800
Dr 0 0 0
At SMD N 00888000
Ne 14 "N-000026"
Po 4080 0
$EndPAD
$PAD
Sh "3" C 1900 1900 0 0 1800
Dr 1770 0 0
At STD N 00E0FFFF
Ne 14 "N-000026"
Po 0 0
$EndPAD
$EndMODULE  banana_jack_8-32
$MODULE banana_jack_8-32
Po 71410 46965 0 15 4ED9BF39 4EC4A801 ~~
Li banana_jack_8-32
Sc 4EC4A801
AR /4EB5F02E
Op 0 0 0
T0 -2640 -1585 600 600 0 120 N V 21 N "J3"
T1 35 75 600 600 0 120 N I 21 N "4MM_SOCKET"
$PAD
Sh "1" R 4000 4000 0 0 0
Dr 0 0 0
At SMD N 00888000
Ne 13 "N-000025"
Po 0 0
$EndPAD
$PAD
Sh "2" R 3200 3000 0 0 0
Dr 0 0 0
At SMD N 00888000
Ne 13 "N-000025"
Po 4080 0
$EndPAD
$PAD
Sh "3" C 1900 1900 0 0 0
Dr 1770 0 0
At STD N 00E0FFFF
Ne 13 "N-000025"
Po 0 0
$EndPAD
$EndMODULE  banana_jack_8-32
$MODULE banana_jack_8-32
Po 71410 39465 0 15 4ED9BD25 4EC4A7FF ~~
Li banana_jack_8-32
Sc 4EC4A7FF
AR /4EB5F031
Op 0 0 0
T0 -2650 -1595 600 600 0 120 N V 21 N "J4"
T1 35 75 600 600 0 120 N I 21 N "4MM_SOCKET"
$PAD
Sh "1" R 4000 4000 0 0 0
Dr 0 0 0
At SMD N 00888000
Ne 1 "/GND"
Po 0 0
$EndPAD
$PAD
Sh "2" R 3200 3000 0 0 0
Dr 0 0 0
At SMD N 00888000
Ne 1 "/GND"
Po 4080 0
$EndPAD
$PAD
Sh "3" C 1900 1900 0 0 0
Dr 1770 0 0
At STD N 00E0FFFF
Ne 1 "/GND"
Po 0 0
$EndPAD
$EndMODULE  banana_jack_8-32
$DRAWSEGMENT
Po 0 57140 49310 57140 49840 150
De 20 0 900 0 0
$EndDRAWSEGMENT
$DRAWSEGMENT
Po 0 58710 49730 58710 49840 150
De 20 0 900 0 0
$EndDRAWSEGMENT
$DRAWSEGMENT
Po 0 59270 48230 59270 48150 150
De 20 0 900 0 0
$EndDRAWSEGMENT
$DRAWSEGMENT
Po 0 57900 49840 57900 48160 150
De 20 0 900 0 0
$EndDRAWSEGMENT
$DRAWSEGMENT
Po 0 58710 49290 58710 49800 150
De 20 0 900 0 0
$EndDRAWSEGMENT
$DRAWSEGMENT
Po 0 65600 48780 65600 48290 150
De 20 0 900 0 0
$EndDRAWSEGMENT
$DRAWSEGMENT
Po 0 66090 49270 65600 48780 150
De 20 0 900 0 0
$EndDRAWSEGMENT
$DRAWSEGMENT
Po 0 66090 49880 66090 49270 150
De 20 0 900 0 0
$EndDRAWSEGMENT
$DRAWSEGMENT
Po 0 66910 49690 66910 49840 150
De 20 0 900 0 0
$EndDRAWSEGMENT
$DRAWSEGMENT
Po 0 66910 49830 66910 49840 150
De 20 0 900 0 0
$EndDRAWSEGMENT
$DRAWSEGMENT
Po 0 68130 48790 68130 48280 150
De 20 0 900 0 0
$EndDRAWSEGMENT
$DRAWSEGMENT
Po 0 67670 49250 68130 48790 150
De 20 0 900 0 0
$EndDRAWSEGMENT
$DRAWSEGMENT
Po 0 67670 49840 67670 49250 150
De 20 0 900 0 0
$EndDRAWSEGMENT
$DRAWSEGMENT
Po 0 66910 49810 66910 48300 150
De 20 0 900 0 0
$EndDRAWSEGMENT
$TEXTPCB
Te "Rev:AB"
Po 61080 35200 500 600 80 2700
De 20 0 0 Normal C
$EndTEXTPCB
$DRAWSEGMENT
Po 0 77720 53220 77720 33210 150
De 28 0 900 0 0
$EndDRAWSEGMENT
$DRAWSEGMENT
Po 0 77720 53215 77720 53220 150
De 28 0 900 0 0
$EndDRAWSEGMENT
$DRAWSEGMENT
Po 0 46370 33210 77720 33210 150
De 28 0 900 0 0
$EndDRAWSEGMENT
$DRAWSEGMENT
Po 0 46370 53220 46370 33210 150
De 28 0 900 0 0
$EndDRAWSEGMENT
$DRAWSEGMENT
Po 0 77715 53220 46370 53220 150
De 28 0 900 0 0
$EndDRAWSEGMENT
$DRAWSEGMENT
Po 0 77720 53215 77715 53220 150
De 28 0 900 0 0
$EndDRAWSEGMENT
$TEXTPCB
Te "Files: MechaRobotics.Wordpress.com"
Po 54300 34000 400 600 80 1800
De 21 1 0 Normal C
$EndTEXTPCB
$TEXTPCB
Te "Design: EEVBlog.com"
Po 54400 34900 400 600 80 1800
De 21 1 0 Normal C
$EndTEXTPCB
$TEXTPCB
Te "OpenCurrent"
Po 62410 38560 1000 1400 200 2700
De 20 0 0 Normal C
$EndTEXTPCB
$TEXTPCB
Te "BATT OK"
Po 62270 48640 500 600 80 2700
De 20 0 0 Normal C
$EndTEXTPCB
$TEXTPCB
Te "1mV / nA (10K Ohm)"
Po 56510 43030 600 800 120 2700
De 20 0 0 Normal C
$EndTEXTPCB
$TEXTPCB
Te "1mV / uA (10 Ohm)"
Po 57890 43360 600 800 120 2700
De 20 0 0 Normal C
$EndTEXTPCB
$TEXTPCB
Te "1mV / mA (10m Ohm)"
Po 59240 42860 600 800 120 2700
De 20 0 0 Normal C
$EndTEXTPCB
$DRAWSEGMENT
Po 0 56530 48690 56530 48140 150
De 20 0 900 0 0
$EndDRAWSEGMENT
$DRAWSEGMENT
Po 0 57140 49300 56530 48690 150
De 20 0 900 0 0
$EndDRAWSEGMENT
$DRAWSEGMENT
Po 0 59270 48730 59270 48210 150
De 20 0 900 0 0
$EndDRAWSEGMENT
$DRAWSEGMENT
Po 0 58710 49290 59270 48730 150
De 20 0 900 0 0
$EndDRAWSEGMENT
$TEXTPCB
Te "OFF"
Po 65560 47260 600 800 120 2700
De 20 0 0 Normal C
$EndTEXTPCB
$TEXTPCB
Te "ON & BATT CHECK"
Po 66830 43900 600 800 120 2700
De 20 0 0 Normal C
$EndTEXTPCB
$TEXTPCB
Te "ON"
Po 68010 47440 600 800 120 2700
De 20 0 0 Normal C
$EndTEXTPCB
$TEXTPCB
Te "+               -"
Po 48550 43230 600 800 120 900
De 20 1 0 Normal C
$EndTEXTPCB
$TEXTPCB
Te "+               -"
Po 75480 43190 600 800 120 900
De 20 1 0 Normal C
$EndTEXTPCB
$TEXTPCB
Te "CURRENT"
nl "INPUT"
Po 49050 43240 600 800 120 2700
De 20 0 0 Normal C
$EndTEXTPCB
$TEXTPCB
Te "VOLTAGE"
nl "OUTPUT"
Po 76050 43270 600 800 120 2700
De 20 0 0 Normal C
$EndTEXTPCB
$DRAWSEGMENT
Po 0 62400 52310 62560 52310 150
De 21 0 900 0 0
$EndDRAWSEGMENT
$DRAWSEGMENT
Po 0 62390 52130 62390 52510 150
De 21 0 900 0 0
$EndDRAWSEGMENT
$TEXTPCB
Te "K"
Po 63190 52180 250 250 50 0
De 21 1 0 Normal C
$EndTEXTPCB
$TEXTPCB
Te "A"
Po 61450 52190 250 250 50 0
De 21 1 0 Normal C
$EndTEXTPCB
$TRACK
Po 0 69060 49280 69020 49280 100 -1
De 15 0 0 0 0
Po 0 69020 49280 69060 49280 100 -1
De 15 0 0 0 0
Po 0 59780 46235 59780 45510 300 -1
De 15 0 1 0 400800
Po 0 59780 45510 58760 44490 300 -1
De 15 0 1 0 0
Po 0 64250 43565 64250 42490 300 -1
De 15 0 1 0 400800
Po 0 64250 42490 64270 42470 300 -1
De 15 0 1 0 0
Po 0 75490 39465 71410 39465 1000 -1
De 15 0 1 0 C00C00
Po 0 65520 44045 65520 42470 300 -1
De 15 0 1 0 400800
Po 0 65530 42610 65530 42470 300 -1
De 15 0 1 0 0
Po 0 65530 42480 65530 42610 300 -1
De 15 0 1 0 0
Po 0 65520 42470 65530 42480 300 -1
De 15 0 1 0 0
Po 0 67830 44365 67830 44060 100 -1
De 15 0 1 0 400800
Po 0 68020 43870 68020 42470 100 -1
De 15 0 1 0 0
Po 0 67830 44060 68020 43870 100 -1
De 15 0 1 0 0
Po 0 56565 47235 56565 46685 400 -1
De 15 0 1 0 400800
Po 0 68405 42470 71410 39465 400 -1
De 15 0 1 0 800400
Po 0 60780 42470 64270 42470 400 -1
De 15 0 1 0 0
Po 0 58950 44300 60780 42470 400 -1
De 15 0 1 0 0
Po 0 64270 42470 65530 42470 400 -1
De 15 0 1 0 0
Po 0 65530 42470 68020 42470 400 -1
De 15 0 1 0 0
Po 0 68020 42470 68405 42470 400 -1
De 15 0 1 0 0
Po 0 56565 46685 58760 44490 400 -1
De 15 0 1 0 0
Po 0 58760 44490 58950 44300 400 -1
De 15 0 1 0 0
Po 0 60440 51860 60440 51880 100 -1
De 15 0 2 0 0
Po 0 64700 47210 63810 48100 100 -1
De 15 0 2 0 0
Po 0 63810 48100 61210 48100 100 -1
De 15 0 2 0 0
Po 0 61210 48100 60440 48870 100 -1
De 15 0 2 0 0
Po 0 60440 48870 60440 51860 100 -1
De 15 0 2 0 0
Po 0 64700 47155 64700 47210 100 -1
De 15 0 2 0 400800
Po 0 59330 52450 58720 51840 100 -1
De 15 0 2 0 800400
Po 0 59870 52450 59330 52450 100 -1
De 15 0 2 0 0
Po 0 60440 51880 59870 52450 100 -1
De 15 0 2 0 0
Po 0 66090 51840 66080 51840 100 -1
De 15 0 3 0 400800
Po 0 63450 48970 62792 48970 100 -1
De 15 0 3 0 800400
Po 0 63828 49348 63450 48970 100 -1
De 15 0 3 0 0
Po 0 63828 50848 63828 49348 100 -1
De 15 0 3 0 0
Po 0 64372 51392 63828 50848 100 -1
De 15 0 3 0 0
Po 0 65632 51392 64372 51392 100 -1
De 15 0 3 0 0
Po 0 66080 51840 65632 51392 100 -1
De 15 0 3 0 0
Po 0 58545 47235 60220 48910 100 -1
De 15 0 4 0 0
Po 0 57648 47235 58545 47235 100 -1
De 15 0 4 0 400800
Po 0 60220 51130 59510 51840 100 -1
De 15 0 4 0 800400
Po 0 60220 48910 60220 51130 100 -1
De 15 0 4 0 0
Po 0 63405 44790 63775 44790 100 -1
De 15 0 5 0 400800
Po 0 63775 44790 64250 44315 100 -1
De 15 0 5 0 800400
Po 0 63300 46985 62685 46985 100 -1
De 15 0 5 0 400800
Po 0 62840 45355 63405 44790 100 -1
De 15 0 5 0 800400
Po 0 62840 45420 62840 45355 100 -1
De 15 0 5 0 0
Po 0 62550 45710 62840 45420 100 -1
De 15 0 5 0 0
Po 0 62550 46850 62550 45710 100 -1
De 15 0 5 0 0
Po 0 62685 46985 62550 46850 100 -1
De 15 0 5 0 0
Po 0 61865 44790 62655 44790 100 -1
De 15 0 6 0 C00C00
Po 0 61115 44790 61100 44790 100 -1
De 15 0 7 0 400800
Po 0 60825 46485 61359 46485 100 -1
De 15 0 7 0 800400
Po 0 60580 46240 60825 46485 100 -1
De 15 0 7 0 0
Po 0 60580 45310 60580 46240 100 -1
De 15 0 7 0 0
Po 0 61100 44790 60580 45310 100 -1
De 15 0 7 0 0
Po 0 67635 43400 66990 43400 100 -1
De 15 0 7 0 400800
Po 0 61965 43940 61115 44790 100 -1
De 15 0 7 0 800400
Po 0 64670 43940 61965 43940 100 -1
De 15 0 7 0 0
Po 0 65150 44420 64670 43940 100 -1
De 15 0 7 0 0
Po 0 65970 44420 65150 44420 100 -1
De 15 0 7 0 0
Po 0 66990 43400 65970 44420 100 -1
De 15 0 7 0 0
Po 0 56484 43421 58769 43421 100 -1
De 15 0 8 0 400800
Po 0 64930 51120 67660 51120 100 -1
De 15 0 8 0 0
Po 0 64490 50680 64930 51120 100 -1
De 15 0 8 0 0
Po 0 64490 49730 64490 50680 100 -1
De 15 0 8 0 0
Po 0 64740 49480 64490 49730 100 -1
De 15 0 8 0 0
Po 3 64740 49480 64740 49480 350 -1
De 15 1 8 0 0
Po 0 64740 41790 64740 49480 100 -1
De 0 0 8 0 0
Po 0 64730 41780 64740 41790 100 -1
De 0 0 8 0 0
Po 3 64730 41780 64730 41780 350 -1
De 15 1 8 0 0
Po 0 60410 41780 64730 41780 100 -1
De 15 0 8 0 0
Po 0 58769 43421 60410 41780 100 -1
De 15 0 8 0 0
Po 0 67660 51840 67660 51190 100 -1
De 15 0 8 0 400800
Po 0 67660 51190 67660 51120 100 -1
De 15 0 8 0 0
Po 0 67660 51120 67660 50540 100 -1
De 15 0 8 0 800400
Po 0 61510 51350 61540 51380 100 -1
De 15 0 9 0 800400
Po 0 61510 49845 61510 51350 100 -1
De 15 0 9 0 400800
Po 0 62730 49400 63166 49836 100 -1
De 15 0 10 0 800400
Po 0 62460 49400 62730 49400 100 -1
De 15 0 10 0 0
Po 0 62155 49095 62460 49400 100 -1
De 15 0 10 0 0
Po 0 61510 49095 62155 49095 100 -1
De 15 0 10 0 400800
Po 0 63380 46405 63300 46485 100 -1
De 15 0 11 0 800400
Po 0 64700 46405 63380 46405 100 -1
De 15 0 11 0 400800
Po 0 68243 47938 67998 47938 100 -1
De 15 0 12 0 400800
Po 0 67998 47938 67715 47655 100 -1
De 15 0 12 0 0
Po 0 67830 47485 67830 47540 100 -1
De 15 0 12 0 0
Po 0 67830 45115 67830 47485 100 -1
De 15 0 12 0 400800
Po 0 67432 47938 67180 47938 100 -1
De 15 0 12 0 800400
Po 0 67830 47540 67715 47655 100 -1
De 15 0 12 0 0
Po 0 67715 47655 67432 47938 100 -1
De 15 0 12 0 0
Po 0 68385 43400 68385 43940 200 -1
De 15 0 13 0 400800
Po 0 68385 43940 71410 46965 200 -1
De 15 0 13 0 800400
Po 0 75490 46965 71410 46965 1000 -1
De 15 0 13 0 C00C00
Po 0 58720 50540 58720 50990 300 -1
De 15 0 14 0 400800
Po 0 54510 48825 52650 46965 300 -1
De 15 0 14 0 800400
Po 0 54510 50920 54510 48825 300 -1
De 15 0 14 0 0
Po 0 56040 52450 54510 50920 300 -1
De 15 0 14 0 0
Po 0 57420 52450 56040 52450 300 -1
De 15 0 14 0 0
Po 0 57760 52110 57420 52450 300 -1
De 15 0 14 0 0
Po 0 57760 51950 57760 52110 300 -1
De 15 0 14 0 0
Po 0 58720 50990 57760 51950 300 -1
De 15 0 14 0 0
Po 0 56360 51840 56160 51840 100 -1
De 15 0 14 0 400800
Po 0 55345 51025 55345 49000 100 -1
De 15 0 14 0 800400
Po 0 56160 51840 55345 51025 100 -1
De 15 0 14 0 0
Po 0 55345 49000 55150 49000 100 -1
De 15 0 14 0 400800
Po 0 53055 46965 55120 49030 500 -1
De 15 0 14 0 0
Po 0 53055 46965 52650 46965 500 -1
De 15 0 14 0 800400
Po 0 55150 49000 55120 49030 100 -1
De 15 0 14 0 0
Po 0 48570 46965 52650 46965 1000 -1
De 15 0 14 0 C00C00
Po 0 52650 46965 53310 46965 500 -1
De 15 0 14 0 400800
Po 0 58286 47786 59510 49010 400 -1
De 15 0 15 0 0
Po 0 58286 47786 57648 47786 400 -1
De 15 0 15 0 800400
Po 0 59510 50540 59510 49010 400 -1
De 15 0 15 0 400800
Po 0 57150 51840 57150 51410 200 -1
De 15 0 16 0 400800
Po 0 57805 50755 57805 49010 200 -1
De 15 0 16 0 800400
Po 0 57150 51410 57805 50755 200 -1
De 15 0 16 0 0
Po 0 57150 50540 57150 50020 200 -1
De 15 0 16 0 400800
Po 0 57805 49365 57805 49010 200 -1
De 15 0 16 0 800400
Po 0 57150 50020 57805 49365 200 -1
De 15 0 16 0 0
Po 0 52650 39465 52650 41710 400 -1
De 15 0 17 0 400800
Po 0 55966 47786 56565 47786 400 -1
De 15 0 17 0 800400
Po 0 55590 47410 55966 47786 400 -1
De 15 0 17 0 0
Po 0 55590 44650 55590 47410 400 -1
De 15 0 17 0 0
Po 0 52650 41710 55590 44650 400 -1
De 15 0 17 0 0
Po 0 56580 49010 56320 49010 500 -1
De 15 0 17 0 0
Po 0 56310 49000 56095 49000 100 -1
De 15 0 17 0 800400
Po 0 56320 49010 56310 49000 500 -1
De 15 0 17 0 0
Po 0 56830 49010 56580 49010 500 -1
De 15 0 17 0 0
Po 0 56580 49010 56575 49010 500 -1
De 15 0 17 0 0
Po 0 57055 49010 56830 49010 100 -1
De 15 0 17 0 400800
Po 0 56575 49010 56565 49000 500 -1
De 15 0 17 0 0
Po 0 52650 39465 48570 39465 1000 -1
De 15 0 17 0 C00C00
Po 0 56565 47786 56565 49000 300 -1
De 15 0 17 0 400800
Po 0 56565 49000 56560 48995 300 -1
De 15 0 17 0 0
Po 0 56560 48995 56560 48990 300 -1
De 15 0 17 0 0
Po 0 56560 48990 56560 49000 300 -1
De 15 0 17 0 0
Po 0 67180 46415 66875 46110 100 -1
De 15 0 18 0 800400
Po 0 66875 46110 66875 45140 100 -1
De 15 0 18 0 400800
Po 0 66875 45140 66870 45135 100 -1
De 15 0 18 0 800400
Po 0 67180 47190 67180 46415 100 -1
De 15 0 18 0 400800
Po 0 66090 50540 66090 48065 100 -1
De 15 0 19 0 400800
Po 0 66090 48065 66070 48045 100 -1
De 15 0 19 0 800400
Po 0 68450 50540 68450 48400 100 -1
De 15 0 19 0 400800
Po 0 68450 48400 68480 48400 100 -1
De 15 0 19 0 0
Po 0 68680 47730 68680 47627 100 -1
De 15 0 19 0 0
Po 0 68680 47730 68680 48200 100 -1
De 15 0 19 0 0
Po 0 68480 48400 68680 48200 100 -1
De 15 0 19 0 0
Po 0 68680 47627 68243 47190 100 -1
De 15 0 19 0 800400
Po 0 61359 46985 59780 46985 100 -1
De 15 0 19 0 C00C00
Po 0 63300 47485 62575 47485 100 -1
De 15 0 19 0 400800
Po 0 62075 46985 61359 46985 100 -1
De 15 0 19 0 800400
Po 0 62575 47485 62075 46985 100 -1
De 15 0 19 0 0
Po 0 66090 48065 66070 48045 100 -1
De 15 0 19 0 800400
Po 0 63300 47485 63765 47485 100 -1
De 15 0 19 0 400800
Po 0 64190 46790 65450 46790 100 -1
De 15 0 19 0 0
Po 0 64080 46900 64190 46790 100 -1
De 15 0 19 0 0
Po 0 64080 47170 64080 46900 100 -1
De 15 0 19 0 0
Po 0 63765 47485 64080 47170 100 -1
De 15 0 19 0 0
Po 0 66125 46110 66125 46115 100 -1
De 15 0 19 0 400800
Po 0 65575 48045 66070 48045 100 -1
De 15 0 19 0 800400
Po 0 65450 47920 65575 48045 100 -1
De 15 0 19 0 0
Po 0 65450 46790 65450 47920 100 -1
De 15 0 19 0 0
Po 0 66125 46115 65450 46790 100 -1
De 15 0 19 0 0
Po 0 66425 48400 66070 48045 100 -1
De 15 0 19 0 800400
Po 0 68480 48400 68360 48400 100 -1
De 15 0 19 0 0
Po 0 68360 48400 66425 48400 100 -1
De 15 0 19 0 0
Po 0 65260 34946 65260 37780 100 -1
De 15 0 20 0 400800
Po 0 65520 45230 65520 44795 100 -1
De 15 0 20 0 800400
Po 0 65270 45480 65520 45230 100 -1
De 15 0 20 0 0
Po 3 65270 45480 65270 45480 350 -1
De 15 1 20 0 0
Po 0 65270 37790 65270 45480 100 -1
De 0 0 20 0 0
Po 0 65260 37780 65270 37790 100 -1
De 0 0 20 0 0
Po 3 65260 37780 65260 37780 350 -1
De 15 1 20 0 0
Po 0 66365 47590 67154 47590 100 -1
De 15 0 20 0 0
Po 0 66070 47295 66365 47590 100 -1
De 15 0 20 0 400800
Po 0 67154 47590 67180 47564 100 -1
De 15 0 20 0 800400
Po 0 62418 49836 62418 50058 100 -1
De 15 0 20 0 400800
Po 0 63190 50830 63190 51380 100 -1
De 15 0 20 0 800400
Po 0 62418 50058 63190 50830 100 -1
De 15 0 20 0 0
Po 0 69020 45030 68580 45030 100 -1
De 15 0 20 0 0
Po 0 69020 49320 69020 49280 100 -1
De 15 0 20 0 0
Po 0 69020 49280 69020 45030 100 -1
De 15 0 20 0 0
Po 0 67175 44690 66870 44385 100 -1
De 15 0 20 0 800400
Po 0 67255 44770 67175 44690 100 -1
De 15 0 20 0 0
Po 0 68320 44770 67255 44770 100 -1
De 15 0 20 0 0
Po 0 68580 45030 68320 44770 100 -1
De 15 0 20 0 0
Po 0 65520 44795 65695 44795 100 -1
De 15 0 20 0 400800
Po 0 66500 46865 66070 47295 100 -1
De 15 0 20 0 800400
Po 0 66500 45600 66500 46865 100 -1
De 15 0 20 0 0
Po 0 65695 44795 66500 45600 100 -1
De 15 0 20 0 0
Po 0 63190 51380 63190 51590 100 -1
De 15 0 20 0 400800
Po 0 69020 52290 69020 49690 100 -1
De 15 0 20 0 0
Po 0 69020 49690 69020 49320 100 -1
De 15 0 20 0 0
Po 0 68550 52760 69020 52290 100 -1
De 15 0 20 0 0
Po 0 64360 52760 68550 52760 100 -1
De 15 0 20 0 0
Po 0 63190 51590 64360 52760 100 -1
De 15 0 20 0 0
Po 0 65520 44795 66045 44795 100 -1
De 15 0 20 0 400800
Po 0 66455 44385 66870 44385 100 -1
De 15 0 20 0 800400
Po 0 66045 44795 66455 44385 100 -1
De 15 0 20 0 0
Po 0 65520 44795 64490 44795 100 -1
De 15 0 20 0 400800
Po 0 64490 44795 63300 45985 100 -1
De 15 0 20 0 800400
$EndTRACK
$ZONE
$EndZONE
$CZONE_OUTLINE
ZInfo 4ED86B5D 1 "/GND"
ZLayer 0
ZAux 4 E
ZClearance 200 T
ZMinThickness 100
ZOptions 1 32 F 200 200
ZSmoothing 0 0
ZCorner 77500 53000 0
ZCorner 77500 33400 0
ZCorner 46500 33400 0
ZCorner 46500 53000 1
$POLYSCORNERS
77445 52945 0 0
77445 33485 0 0
46645 33485 0 0
46645 52945 0 0
48149 52945 0 1
48149 52557 0 0
47946 52553 0 0
47748 52509 0 0
47562 52428 0 0
47396 52312 0 0
47255 52166 0 0
47145 51995 0 0
47070 51806 0 0
47034 51607 0 0
47037 51404 0 0
47079 51205 0 0
47159 51019 0 0
47274 50851 0 0
47419 50709 0 0
47589 50598 0 0
47777 50522 0 0
47976 50484 0 0
48149 50485 0 1
48149 35947 0 0
47946 35943 0 0
47748 35899 0 0
47562 35818 0 0
47396 35702 0 0
47255 35556 0 0
47145 35385 0 0
47070 35196 0 0
47034 34997 0 0
47037 34794 0 0
47079 34595 0 0
47159 34409 0 0
47274 34241 0 0
47419 34099 0 0
47589 33988 0 0
47777 33912 0 0
47976 33874 0 0
48179 33876 0 0
48378 33917 0 0
48565 33995 0 0
48733 34109 0 0
48876 34253 0 0
48988 34422 0 0
49066 34610 0 0
49105 34809 0 0
49102 35041 0 0
49057 35239 0 0
48974 35424 0 0
48857 35590 0 0
48710 35730 0 0
48538 35838 0 0
48349 35912 0 0
48149 35947 0 1
48149 50485 0 0
48179 50486 0 0
48378 50527 0 0
48565 50605 0 0
48733 50719 0 0
48876 50863 0 0
48988 51032 0 0
49066 51220 0 0
49105 51419 0 0
49102 51651 0 0
49057 51849 0 0
48974 52034 0 0
48857 52200 0 0
48710 52340 0 0
48538 52448 0 0
48349 52522 0 0
48149 52557 0 1
48149 52945 0 0
52743 52945 0 1
52743 48166 0 0
52508 48161 0 0
52278 48111 0 0
52063 48017 0 0
51869 47883 0 0
51706 47714 0 0
51579 47516 0 0
51492 47298 0 0
51449 47066 0 0
51453 46831 0 0
51501 46601 0 0
51594 46385 0 0
51727 46191 0 0
51895 46026 0 0
52091 45898 0 0
52309 45809 0 0
52540 45765 0 0
52743 45766 0 1
52743 40666 0 0
52508 40661 0 0
52278 40611 0 0
52063 40517 0 0
51869 40383 0 0
51706 40214 0 0
51579 40016 0 0
51492 39798 0 0
51449 39566 0 0
51453 39331 0 0
51501 39101 0 0
51594 38885 0 0
51727 38691 0 0
51895 38526 0 0
52091 38398 0 0
52309 38309 0 0
52540 38265 0 0
52776 38267 0 0
53006 38314 0 0
53223 38405 0 0
53418 38536 0 0
53583 38703 0 0
53714 38899 0 0
53803 39116 0 0
53849 39347 0 0
53845 39616 0 0
53793 39845 0 0
53698 40060 0 0
53562 40252 0 0
53392 40414 0 0
53194 40540 0 0
52974 40625 0 0
52743 40666 0 1
52743 45766 0 0
52776 45767 0 0
53006 45814 0 0
53223 45905 0 0
53418 46036 0 0
53583 46203 0 0
53714 46399 0 0
53803 46616 0 0
53849 46847 0 0
53845 47116 0 0
53793 47345 0 0
53698 47560 0 0
53562 47752 0 0
53392 47914 0 0
53194 48040 0 0
52974 48125 0 0
52743 48166 0 1
52743 52945 0 0
57189 52945 0 1
57189 52341 0 0
57090 52339 0 0
56995 52318 0 0
56905 52279 0 0
56824 52223 0 0
56756 52152 0 0
56753 52148 0 0
56740 52168 0 0
56669 52236 0 0
56586 52288 0 0
56495 52324 0 0
56399 52341 0 0
56300 52339 0 0
56205 52318 0 0
56115 52279 0 0
56034 52223 0 0
55966 52152 0 0
55913 52070 0 0
55877 51978 0 0
55859 51882 0 0
55861 51784 0 0
55881 51688 0 0
55920 51598 0 0
55975 51517 0 0
56045 51448 0 0
56127 51395 0 0
56218 51358 0 0
56314 51340 0 0
56413 51340 0 0
56509 51360 0 0
56599 51398 0 0
56680 51453 0 0
56749 51522 0 0
56755 51531 0 0
56765 51517 0 0
56835 51448 0 0
56917 51395 0 0
57008 51358 0 0
57104 51340 0 0
57189 51340 0 1
57189 51041 0 0
57090 51039 0 0
56995 51018 0 0
56905 50979 0 0
56824 50923 0 0
56756 50852 0 0
56753 50848 0 0
56740 50868 0 0
56669 50936 0 0
56586 50988 0 0
56495 51024 0 0
56399 51041 0 0
56300 51039 0 0
56205 51018 0 0
56115 50979 0 0
56034 50923 0 0
55966 50852 0 0
55913 50770 0 0
55877 50678 0 0
55859 50582 0 0
55861 50484 0 0
55881 50388 0 0
55920 50298 0 0
55975 50217 0 0
56045 50148 0 0
56127 50095 0 0
56218 50058 0 0
56314 50040 0 0
56413 50040 0 0
56509 50060 0 0
56599 50098 0 0
56680 50153 0 0
56749 50222 0 0
56755 50231 0 0
56765 50217 0 0
56835 50148 0 0
56917 50095 0 0
57008 50058 0 0
57104 50040 0 0
57203 50040 0 0
57299 50060 0 0
57389 50098 0 0
57470 50153 0 0
57539 50222 0 0
57594 50304 0 0
57631 50395 0 0
57650 50491 0 0
57648 50603 0 0
57627 50699 0 0
57587 50788 0 0
57530 50868 0 0
57459 50936 0 0
57376 50988 0 0
57285 51024 0 0
57189 51041 0 1
57189 51340 0 0
57203 51340 0 0
57299 51360 0 0
57389 51398 0 0
57470 51453 0 0
57539 51522 0 0
57594 51604 0 0
57631 51695 0 0
57650 51791 0 0
57648 51903 0 0
57627 51999 0 0
57587 52088 0 0
57530 52168 0 0
57459 52236 0 0
57376 52288 0 0
57285 52324 0 0
57189 52341 0 1
57189 52945 0 0
59549 52945 0 1
59549 52341 0 0
59450 52339 0 0
59355 52318 0 0
59265 52279 0 0
59184 52223 0 0
59116 52152 0 0
59113 52148 0 0
59100 52168 0 0
59029 52236 0 0
58946 52288 0 0
58855 52324 0 0
58759 52341 0 0
58660 52339 0 0
58565 52318 0 0
58475 52279 0 0
58394 52223 0 0
58326 52152 0 0
58273 52070 0 0
58237 51978 0 0
58219 51882 0 0
58221 51784 0 0
58241 51688 0 0
58280 51598 0 0
58335 51517 0 0
58405 51448 0 0
58487 51395 0 0
58578 51358 0 0
58674 51340 0 0
58773 51340 0 0
58869 51360 0 0
58959 51398 0 0
59040 51453 0 0
59109 51522 0 0
59115 51531 0 0
59125 51517 0 0
59195 51448 0 0
59277 51395 0 0
59368 51358 0 0
59464 51340 0 0
59549 51340 0 1
59549 51041 0 0
59450 51039 0 0
59355 51018 0 0
59265 50979 0 0
59184 50923 0 0
59116 50852 0 0
59113 50848 0 0
59100 50868 0 0
59029 50936 0 0
58946 50988 0 0
58855 51024 0 0
58759 51041 0 0
58660 51039 0 0
58565 51018 0 0
58475 50979 0 0
58394 50923 0 0
58326 50852 0 0
58273 50770 0 0
58237 50678 0 0
58219 50582 0 0
58221 50484 0 0
58241 50388 0 0
58280 50298 0 0
58335 50217 0 0
58405 50148 0 0
58487 50095 0 0
58578 50058 0 0
58674 50040 0 0
58773 50040 0 0
58869 50060 0 0
58959 50098 0 0
59040 50153 0 0
59109 50222 0 0
59115 50231 0 0
59125 50217 0 0
59195 50148 0 0
59277 50095 0 0
59368 50058 0 0
59464 50040 0 0
59563 50040 0 0
59659 50060 0 0
59749 50098 0 0
59830 50153 0 0
59899 50222 0 0
59954 50304 0 0
59991 50395 0 0
60010 50491 0 0
60008 50603 0 0
59987 50699 0 0
59947 50788 0 0
59890 50868 0 0
59819 50936 0 0
59736 50988 0 0
59645 51024 0 0
59549 51041 0 1
59549 51340 0 0
59563 51340 0 0
59659 51360 0 0
59749 51398 0 0
59830 51453 0 0
59899 51522 0 0
59954 51604 0 0
59991 51695 0 0
60010 51791 0 0
60008 51903 0 0
59987 51999 0 0
59947 52088 0 0
59890 52168 0 0
59819 52236 0 0
59736 52288 0 0
59645 52324 0 0
59549 52341 0 1
59549 52945 0 0
62422 52945 0 1
62422 52130 0 0
62275 52127 0 0
62132 52096 0 0
61997 52037 0 0
61877 51953 0 0
61775 51847 0 0
61695 51724 0 0
61641 51587 0 0
61615 51443 0 0
61617 51296 0 0
61648 51152 0 0
61706 51017 0 0
61789 50896 0 0
61894 50793 0 0
62017 50713 0 0
62153 50658 0 0
62297 50631 0 0
62444 50632 0 0
62588 50661 0 0
62723 50718 0 0
62845 50800 0 0
62948 50905 0 0
63030 51027 0 0
63086 51163 0 0
63114 51307 0 0
63112 51475 0 0
63079 51618 0 0
63019 51752 0 0
62934 51872 0 0
62828 51973 0 0
62704 52052 0 0
62567 52105 0 0
62422 52130 0 1
62422 52945 0 0
64773 52945 0 1
64773 49906 0 0
64690 49904 0 0
64608 49886 0 0
64532 49853 0 0
64463 49805 0 0
64406 49746 0 0
64360 49676 0 0
64330 49598 0 0
64314 49516 0 0
64316 49433 0 0
64333 49351 0 0
64366 49275 0 0
64413 49206 0 0
64440 49179 0 0
64440 42091 0 0
64396 42046 0 0
64350 41976 0 0
64320 41898 0 0
64304 41816 0 0
64306 41733 0 0
64323 41651 0 0
64356 41575 0 0
64403 41506 0 0
64462 41447 0 0
64532 41402 0 0
64609 41370 0 0
64691 41355 0 0
64774 41355 0 0
64856 41372 0 0
64933 41404 0 0
64970 41429 0 0
64970 38091 0 0
64926 38046 0 0
64880 37976 0 0
64850 37898 0 0
64834 37816 0 0
64836 37733 0 0
64853 37651 0 0
64886 37575 0 0
64933 37506 0 0
64992 37447 0 0
65062 37402 0 0
65139 37370 0 0
65221 37355 0 0
65304 37355 0 0
65386 37372 0 0
65463 37404 0 0
65532 37451 0 0
65591 37510 0 0
65637 37579 0 0
65669 37656 0 0
65685 37738 0 0
65684 37833 0 0
65665 37914 0 0
65631 37991 0 0
65584 38059 0 0
65570 38072 0 0
65570 45179 0 0
65601 45210 0 0
65647 45279 0 0
65679 45356 0 0
65695 45438 0 0
65694 45533 0 0
65675 45614 0 0
65641 45691 0 0
65594 45759 0 0
65533 45816 0 0
65463 45861 0 0
65385 45891 0 0
65303 45906 0 0
65220 45904 0 0
65138 45886 0 0
65062 45853 0 0
65040 45837 0 0
65040 49179 0 0
65071 49210 0 0
65117 49279 0 0
65149 49356 0 0
65165 49438 0 0
65164 49533 0 0
65145 49614 0 0
65111 49691 0 0
65064 49759 0 0
65003 49816 0 0
64933 49861 0 0
64855 49891 0 0
64773 49906 0 1
64773 52945 0 0
66129 52945 0 1
66129 52341 0 0
66030 52339 0 0
65935 52318 0 0
65845 52279 0 0
65764 52223 0 0
65696 52152 0 0
65693 52148 0 0
65680 52168 0 0
65609 52236 0 0
65526 52288 0 0
65435 52324 0 0
65339 52341 0 0
65240 52339 0 0
65145 52318 0 0
65055 52279 0 0
64974 52223 0 0
64906 52152 0 0
64853 52070 0 0
64817 51978 0 0
64799 51882 0 0
64801 51784 0 0
64821 51688 0 0
64860 51598 0 0
64915 51517 0 0
64985 51448 0 0
65067 51395 0 0
65158 51358 0 0
65254 51340 0 0
65353 51340 0 0
65449 51360 0 0
65539 51398 0 0
65620 51453 0 0
65689 51522 0 0
65695 51531 0 0
65705 51517 0 0
65775 51448 0 0
65857 51395 0 0
65948 51358 0 0
66044 51340 0 0
66129 51340 0 1
66129 51041 0 0
66030 51039 0 0
65935 51018 0 0
65845 50979 0 0
65764 50923 0 0
65696 50852 0 0
65693 50848 0 0
65680 50868 0 0
65609 50936 0 0
65526 50988 0 0
65435 51024 0 0
65339 51041 0 0
65240 51039 0 0
65145 51018 0 0
65055 50979 0 0
64974 50923 0 0
64906 50852 0 0
64853 50770 0 0
64817 50678 0 0
64799 50582 0 0
64801 50484 0 0
64821 50388 0 0
64860 50298 0 0
64915 50217 0 0
64985 50148 0 0
65067 50095 0 0
65158 50058 0 0
65254 50040 0 0
65353 50040 0 0
65449 50060 0 0
65539 50098 0 0
65620 50153 0 0
65689 50222 0 0
65695 50231 0 0
65705 50217 0 0
65775 50148 0 0
65857 50095 0 0
65948 50058 0 0
66044 50040 0 0
66143 50040 0 0
66239 50060 0 0
66329 50098 0 0
66410 50153 0 0
66479 50222 0 0
66534 50304 0 0
66571 50395 0 0
66590 50491 0 0
66588 50603 0 0
66567 50699 0 0
66527 50788 0 0
66470 50868 0 0
66399 50936 0 0
66316 50988 0 0
66225 51024 0 0
66129 51041 0 1
66129 51340 0 0
66143 51340 0 0
66239 51360 0 0
66329 51398 0 0
66410 51453 0 0
66479 51522 0 0
66534 51604 0 0
66571 51695 0 0
66590 51791 0 0
66588 51903 0 0
66567 51999 0 0
66527 52088 0 0
66470 52168 0 0
66399 52236 0 0
66316 52288 0 0
66225 52324 0 0
66129 52341 0 1
66129 52945 0 0
68489 52945 0 1
68489 52341 0 0
68390 52339 0 0
68295 52318 0 0
68205 52279 0 0
68124 52223 0 0
68056 52152 0 0
68053 52148 0 0
68040 52168 0 0
67969 52236 0 0
67886 52288 0 0
67795 52324 0 0
67699 52341 0 0
67600 52339 0 0
67505 52318 0 0
67415 52279 0 0
67334 52223 0 0
67266 52152 0 0
67213 52070 0 0
67177 51978 0 0
67159 51882 0 0
67161 51784 0 0
67181 51688 0 0
67220 51598 0 0
67275 51517 0 0
67345 51448 0 0
67427 51395 0 0
67518 51358 0 0
67614 51340 0 0
67713 51340 0 0
67809 51360 0 0
67899 51398 0 0
67980 51453 0 0
68049 51522 0 0
68055 51531 0 0
68065 51517 0 0
68135 51448 0 0
68217 51395 0 0
68308 51358 0 0
68404 51340 0 0
68489 51340 0 1
68489 51041 0 0
68390 51039 0 0
68295 51018 0 0
68205 50979 0 0
68124 50923 0 0
68056 50852 0 0
68053 50848 0 0
68040 50868 0 0
67969 50936 0 0
67886 50988 0 0
67795 51024 0 0
67699 51041 0 0
67600 51039 0 0
67505 51018 0 0
67415 50979 0 0
67334 50923 0 0
67266 50852 0 0
67213 50770 0 0
67177 50678 0 0
67159 50582 0 0
67161 50484 0 0
67181 50388 0 0
67220 50298 0 0
67275 50217 0 0
67345 50148 0 0
67427 50095 0 0
67518 50058 0 0
67614 50040 0 0
67713 50040 0 0
67809 50060 0 0
67899 50098 0 0
67980 50153 0 0
68049 50222 0 0
68055 50231 0 0
68065 50217 0 0
68135 50148 0 0
68217 50095 0 0
68308 50058 0 0
68404 50040 0 0
68503 50040 0 0
68599 50060 0 0
68689 50098 0 0
68770 50153 0 0
68839 50222 0 0
68894 50304 0 0
68931 50395 0 0
68950 50491 0 0
68948 50603 0 0
68927 50699 0 0
68887 50788 0 0
68830 50868 0 0
68759 50936 0 0
68676 50988 0 0
68585 51024 0 0
68489 51041 0 1
68489 51340 0 0
68503 51340 0 0
68599 51360 0 0
68689 51398 0 0
68770 51453 0 0
68839 51522 0 0
68894 51604 0 0
68931 51695 0 0
68950 51791 0 0
68948 51903 0 0
68927 51999 0 0
68887 52088 0 0
68830 52168 0 0
68759 52236 0 0
68676 52288 0 0
68585 52324 0 0
68489 52341 0 1
68489 52945 0 0
71503 52945 0 1
71503 48166 0 0
71268 48161 0 0
71038 48111 0 0
70823 48017 0 0
70629 47883 0 0
70466 47714 0 0
70339 47516 0 0
70252 47298 0 0
70209 47066 0 0
70213 46831 0 0
70261 46601 0 0
70354 46385 0 0
70487 46191 0 0
70571 46108 0 1
70571 40233 0 0
70412 40128 0 0
70303 39922 0 0
70235 39698 0 0
70211 39466 0 0
70234 39232 0 0
70301 39008 0 0
70412 38802 0 0
70571 38697 0 0
71339 39465 0 0
70571 40233 0 1
70571 46108 0 0
70655 46026 0 0
70851 45898 0 0
71069 45809 0 0
71300 45765 0 0
71411 45765 0 1
71411 40664 0 0
71177 40641 0 0
70953 40574 0 0
70747 40463 0 0
70642 40304 0 0
71410 39536 0 1
71410 39394 0 0
70642 38626 0 0
70747 38467 0 0
70953 38358 0 0
71177 38290 0 0
71409 38266 0 0
71643 38289 0 0
71867 38356 0 0
72073 38467 0 0
72178 38626 0 0
71410 39394 0 1
71410 39536 0 0
72178 40304 0 0
72073 40463 0 0
71867 40572 0 0
71643 40640 0 0
71411 40664 0 1
71411 45765 0 0
71536 45767 0 0
71766 45814 0 0
71983 45905 0 0
72178 46036 0 0
72249 46107 0 1
72249 40233 0 0
71481 39465 0 0
72249 38697 0 0
72408 38802 0 0
72517 39008 0 0
72585 39232 0 0
72609 39464 0 0
72586 39698 0 0
72519 39922 0 0
72408 40128 0 0
72249 40233 0 1
72249 46107 0 0
72343 46203 0 0
72474 46399 0 0
72563 46616 0 0
72609 46847 0 0
72605 47116 0 0
72553 47345 0 0
72458 47560 0 0
72322 47752 0 0
72152 47914 0 0
71954 48040 0 0
71734 48125 0 0
71503 48166 0 1
71503 52945 0 0
76099 52945 0 1
76099 52557 0 0
75896 52553 0 0
75698 52509 0 0
75512 52428 0 0
75346 52312 0 0
75205 52166 0 0
75095 51995 0 0
75020 51806 0 0
74984 51607 0 0
74987 51404 0 0
75029 51205 0 0
75109 51019 0 0
75224 50851 0 0
75369 50709 0 0
75539 50598 0 0
75727 50522 0 0
75926 50484 0 0
76099 50485 0 1
76099 35947 0 0
75896 35943 0 0
75698 35899 0 0
75512 35818 0 0
75346 35702 0 0
75205 35556 0 0
75095 35385 0 0
75020 35196 0 0
74984 34997 0 0
74987 34794 0 0
75029 34595 0 0
75109 34409 0 0
75224 34241 0 0
75369 34099 0 0
75539 33988 0 0
75727 33912 0 0
75926 33874 0 0
76129 33876 0 0
76328 33917 0 0
76515 33995 0 0
76683 34109 0 0
76826 34253 0 0
76938 34422 0 0
77016 34610 0 0
77055 34809 0 0
77052 35041 0 0
77007 35239 0 0
76924 35424 0 0
76807 35590 0 0
76660 35730 0 0
76488 35838 0 0
76299 35912 0 0
76099 35947 0 1
76099 50485 0 0
76129 50486 0 0
76328 50527 0 0
76515 50605 0 0
76683 50719 0 0
76826 50863 0 0
76938 51032 0 0
77016 51220 0 0
77055 51419 0 0
77052 51651 0 0
77007 51849 0 0
76924 52034 0 0
76807 52200 0 0
76660 52340 0 0
76488 52448 0 0
76299 52522 0 0
76099 52557 0 1
76099 52945 1 0
$endPOLYSCORNERS
$FILLSEGMENTS
46645 33485 77445 33485
46645 33565 77445 33565
46645 33645 77445 33645
46645 33725 77445 33725
46645 33805 77445 33805
46645 33885 47919 33885
48223 33885 75869 33885
76173 33885 77445 33885
46645 33965 47646 33965
48494 33965 75596 33965
76444 33965 77445 33965
46645 34045 47502 34045
48639 34045 75452 34045
76589 34045 77445 34045
46645 34125 47393 34125
48749 34125 75343 34125
76699 34125 77445 34125
46645 34205 47311 34205
48829 34205 75261 34205
76779 34205 77445 34205
46645 34285 47244 34285
48898 34285 75194 34285
76848 34285 77445 34285
46645 34365 47190 34365
48951 34365 75140 34365
76901 34365 77445 34365
46645 34445 47144 34445
48998 34445 75094 34445
76948 34445 77445 34445
46645 34525 47110 34525
49031 34525 75060 34525
76981 34525 77445 34525
46645 34605 47077 34605
49064 34605 75027 34605
77014 34605 77445 34605
46645 34685 47061 34685
49081 34685 75011 34685
77031 34685 77445 34685
46645 34765 47044 34765
49097 34765 74994 34765
77047 34765 77445 34765
46645 34845 47037 34845
49104 34845 74987 34845
77054 34845 77445 34845
46645 34925 47036 34925
49103 34925 74986 34925
77053 34925 77445 34925
46645 35005 47035 35005
49102 35005 74985 35005
77052 35005 77445 35005
46645 35085 47049 35085
49092 35085 74999 35085
77042 35085 77445 35085
46645 35165 47064 35165
49073 35165 75014 35165
77023 35165 77445 35165
46645 35245 47089 35245
49054 35245 75039 35245
77004 35245 77445 35245
46645 35325 47121 35325
49018 35325 75071 35325
76968 35325 77445 35325
46645 35405 47157 35405
48982 35405 75107 35405
76932 35405 77445 35405
46645 35485 47209 35485
48931 35485 75159 35485
76881 35485 77445 35485
46645 35565 47263 35565
48874 35565 75213 35565
76824 35565 77445 35565
46645 35645 47340 35645
48799 35645 75290 35645
76749 35645 77445 35645
46645 35725 47428 35725
48715 35725 75378 35725
76665 35725 77445 35725
46645 35805 47543 35805
48590 35805 75493 35805
76540 35805 77445 35805
46645 35885 47715 35885
48417 35885 75665 35885
76367 35885 77445 35885
46645 35965 77445 35965
46645 36045 77445 36045
46645 36125 77445 36125
46645 36205 77445 36205
46645 36285 77445 36285
46645 36365 77445 36365
46645 36445 77445 36445
46645 36525 77445 36525
46645 36605 77445 36605
46645 36685 77445 36685
46645 36765 77445 36765
46645 36845 77445 36845
46645 36925 77445 36925
46645 37005 77445 37005
46645 37085 77445 37085
46645 37165 77445 37165
46645 37245 77445 37245
46645 37325 77445 37325
46645 37405 65058 37405
65465 37405 77445 37405
46645 37485 64954 37485
65566 37485 77445 37485
46645 37565 64893 37565
65628 37565 77445 37565
46645 37645 64856 37645
65665 37645 77445 37645
46645 37725 64838 37725
65683 37725 77445 37725
46645 37805 64835 37805
65684 37805 77445 37805
46645 37885 64847 37885
65671 37885 77445 37885
46645 37965 64875 37965
65642 37965 77445 37965
46645 38045 64925 38045
65593 38045 77445 38045
46645 38125 64970 38125
65570 38125 77445 38125
46645 38205 64970 38205
65570 38205 77445 38205
46645 38285 52435 38285
52865 38285 64970 38285
65570 38285 71226 38285
71603 38285 77445 38285
46645 38365 52172 38365
53128 38365 64970 38365
65570 38365 70940 38365
71884 38365 77445 38365
46645 38445 52020 38445
53283 38445 64970 38445
65570 38445 70789 38445
72033 38445 77445 38445
46645 38525 51897 38525
53402 38525 64970 38525
65570 38525 70709 38525
72112 38525 77445 38525
46645 38605 51815 38605
53487 38605 64970 38605
65570 38605 70656 38605
72165 38605 77445 38605
46645 38685 51734 38685
53566 38685 64970 38685
65570 38685 70701 38685
72119 38685 77445 38685
46645 38765 51677 38765
53625 38765 64970 38765
65570 38765 70469 38765
70639 38765 70781 38765
72039 38765 72181 38765
72352 38765 77445 38765
46645 38845 51622 38845
53678 38845 64970 38845
65570 38845 70389 38845
70719 38845 70861 38845
71959 38845 72101 38845
72431 38845 77445 38845
46645 38925 51577 38925
53725 38925 64970 38925
65570 38925 70346 38925
70799 38925 70941 38925
71879 38925 72021 38925
72474 38925 77445 38925
46645 39005 51543 39005
53758 39005 64970 39005
65570 39005 70303 39005
70879 39005 71021 39005
71799 39005 71941 39005
72516 39005 77445 39005
46645 39085 51508 39085
53791 39085 64970 39085
65570 39085 70278 39085
70959 39085 71101 39085
71719 39085 71861 39085
72541 39085 77445 39085
46645 39165 51488 39165
53813 39165 64970 39165
65570 39165 70255 39165
71039 39165 71181 39165
71639 39165 71781 39165
72565 39165 77445 39165
46645 39245 51471 39245
53829 39245 64970 39245
65570 39245 70233 39245
71119 39245 71261 39245
71559 39245 71701 39245
72587 39245 77445 39245
46645 39325 51455 39325
53845 39325 64970 39325
65570 39325 70225 39325
71199 39325 71341 39325
71479 39325 71621 39325
72595 39325 77445 39325
46645 39405 51452 39405
53848 39405 64970 39405
65570 39405 70217 39405
71279 39405 71541 39405
72603 39405 77445 39405
46645 39485 51451 39485
53846 39485 64970 39485
65570 39485 70212 39485
71319 39485 71501 39485
72606 39485 77445 39485
46645 39565 51450 39565
53845 39565 64970 39565
65570 39565 70221 39565
71239 39565 71381 39565
71439 39565 71581 39565
72599 39565 77445 39565
46645 39645 51463 39645
53838 39645 64970 39645
65570 39645 70229 39645
71159 39645 71301 39645
71519 39645 71661 39645
72591 39645 77445 39645
46645 39725 51478 39725
53820 39725 64970 39725
65570 39725 70243 39725
71079 39725 71221 39725
71599 39725 71741 39725
72577 39725 77445 39725
46645 39805 51494 39805
53802 39805 64970 39805
65570 39805 70267 39805
70999 39805 71141 39805
71679 39805 71821 39805
72553 39805 77445 39805
46645 39885 51526 39885
53775 39885 64970 39885
65570 39885 70291 39885
70919 39885 71061 39885
71759 39885 71901 39885
72530 39885 77445 39885
46645 39965 51558 39965
53739 39965 64970 39965
65570 39965 70325 39965
70839 39965 70981 39965
71839 39965 71981 39965
72495 39965 77445 39965
46645 40045 51597 40045
53704 40045 64970 40045
65570 40045 70368 40045
70759 40045 70901 40045
71919 40045 72061 40045
72452 40045 77445 40045
46645 40125 51648 40125
53651 40125 64970 40125
65570 40125 70410 40125
70679 40125 70821 40125
71999 40125 72141 40125
72409 40125 77445 40125
46645 40205 51700 40205
53595 40205 64970 40205
65570 40205 70528 40205
70599 40205 70741 40205
72079 40205 72221 40205
72291 40205 77445 40205
46645 40285 51774 40285
53527 40285 64970 40285
65570 40285 70661 40285
72159 40285 77445 40285
46645 40365 51851 40365
53443 40365 64970 40365
65570 40365 70682 40365
72137 40365 77445 40365
46645 40445 51958 40445
53343 40445 64970 40445
65570 40445 70735 40445
72084 40445 77445 40445
46645 40525 52081 40525
53217 40525 64970 40525
65570 40525 70862 40525
71955 40525 77445 40525
46645 40605 52264 40605
53025 40605 64970 40605
65570 40605 71056 40605
71758 40605 77445 40605
46645 40685 64970 40685
65570 40685 77445 40685
46645 40765 64970 40765
65570 40765 77445 40765
46645 40845 64970 40845
65570 40845 77445 40845
46645 40925 64970 40925
65570 40925 77445 40925
46645 41005 64970 41005
65570 41005 77445 41005
46645 41085 64970 41085
65570 41085 77445 41085
46645 41165 64970 41165
65570 41165 77445 41165
46645 41245 64970 41245
65570 41245 77445 41245
46645 41325 64970 41325
65570 41325 77445 41325
46645 41405 64528 41405
64935 41405 64970 41405
65570 41405 77445 41405
46645 41485 64424 41485
65570 41485 77445 41485
46645 41565 64363 41565
65570 41565 77445 41565
46645 41645 64326 41645
65570 41645 77445 41645
46645 41725 64308 41725
65570 41725 77445 41725
46645 41805 64305 41805
65570 41805 77445 41805
46645 41885 64317 41885
65570 41885 77445 41885
46645 41965 64345 41965
65570 41965 77445 41965
46645 42045 64395 42045
65570 42045 77445 42045
46645 42125 64440 42125
65570 42125 77445 42125
46645 42205 64440 42205
65570 42205 77445 42205
46645 42285 64440 42285
65570 42285 77445 42285
46645 42365 64440 42365
65570 42365 77445 42365
46645 42445 64440 42445
65570 42445 77445 42445
46645 42525 64440 42525
65570 42525 77445 42525
46645 42605 64440 42605
65570 42605 77445 42605
46645 42685 64440 42685
65570 42685 77445 42685
46645 42765 64440 42765
65570 42765 77445 42765
46645 42845 64440 42845
65570 42845 77445 42845
46645 42925 64440 42925
65570 42925 77445 42925
46645 43005 64440 43005
65570 43005 77445 43005
46645 43085 64440 43085
65570 43085 77445 43085
46645 43165 64440 43165
65570 43165 77445 43165
46645 43245 64440 43245
65570 43245 77445 43245
46645 43325 64440 43325
65570 43325 77445 43325
46645 43405 64440 43405
65570 43405 77445 43405
46645 43485 64440 43485
65570 43485 77445 43485
46645 43565 64440 43565
65570 43565 77445 43565
46645 43645 64440 43645
65570 43645 77445 43645
46645 43725 64440 43725
65570 43725 77445 43725
46645 43805 64440 43805
65570 43805 77445 43805
46645 43885 64440 43885
65570 43885 77445 43885
46645 43965 64440 43965
65570 43965 77445 43965
46645 44045 64440 44045
65570 44045 77445 44045
46645 44125 64440 44125
65570 44125 77445 44125
46645 44205 64440 44205
65570 44205 77445 44205
46645 44285 64440 44285
65570 44285 77445 44285
46645 44365 64440 44365
65570 44365 77445 44365
46645 44445 64440 44445
65570 44445 77445 44445
46645 44525 64440 44525
65570 44525 77445 44525
46645 44605 64440 44605
65570 44605 77445 44605
46645 44685 64440 44685
65570 44685 77445 44685
46645 44765 64440 44765
65570 44765 77445 44765
46645 44845 64440 44845
65570 44845 77445 44845
46645 44925 64440 44925
65570 44925 77445 44925
46645 45005 64440 45005
65570 45005 77445 45005
46645 45085 64440 45085
65570 45085 77445 45085
46645 45165 64440 45165
65570 45165 77445 45165
46645 45245 64440 45245
65625 45245 77445 45245
46645 45325 64440 45325
65667 45325 77445 45325
46645 45405 64440 45405
65689 45405 77445 45405
46645 45485 64440 45485
65694 45485 77445 45485
46645 45565 64440 45565
65686 45565 77445 45565
46645 45645 64440 45645
65661 45645 77445 45645
46645 45725 64440 45725
65617 45725 77445 45725
46645 45805 52330 45805
52962 45805 64440 45805
65544 45805 71090 45805
71722 45805 77445 45805
46645 45885 52123 45885
53176 45885 64440 45885
65040 45885 65135 45885
65400 45885 70883 45885
71936 45885 77445 45885
46645 45965 51989 45965
53313 45965 64440 45965
65040 45965 70749 45965
72073 45965 77445 45965
46645 46045 51876 46045
53427 46045 64440 46045
65040 46045 70636 46045
72187 46045 77445 46045
46645 46125 51795 46125
53506 46125 64440 46125
65040 46125 70554 46125
72267 46125 77445 46125
46645 46205 51718 46205
53585 46205 64440 46205
65040 46205 70478 46205
72345 46205 77445 46205
46645 46285 51663 46285
53638 46285 64440 46285
65040 46285 70423 46285
72398 46285 77445 46285
46645 46365 51608 46365
53692 46365 64440 46365
65040 46365 70368 46365
72452 46365 77445 46365
46645 46445 51569 46445
53733 46445 64440 46445
65040 46445 70329 46445
72493 46445 77445 46445
46645 46525 51534 46525
53766 46525 64440 46525
65040 46525 70294 46525
72526 46525 77445 46525
46645 46605 51501 46605
53799 46605 64440 46605
65040 46605 70261 46605
72559 46605 77445 46605
46645 46685 51484 46685
53817 46685 64440 46685
65040 46685 70244 46685
72577 46685 77445 46685
46645 46765 51467 46765
53833 46765 64440 46765
65040 46765 70227 46765
72593 46765 77445 46765
46645 46845 51453 46845
53849 46845 64440 46845
65040 46845 70213 46845
72609 46845 77445 46845
46645 46925 51452 46925
53847 46925 64440 46925
65040 46925 70212 46925
72607 46925 77445 46925
46645 47005 51451 47005
53846 47005 64440 47005
65040 47005 70211 47005
72606 47005 77445 47005
46645 47085 51452 47085
53845 47085 64440 47085
65040 47085 70212 47085
72605 47085 77445 47085
46645 47165 51467 47165
53833 47165 64440 47165
65040 47165 70227 47165
72593 47165 77445 47165
46645 47245 51482 47245
53815 47245 64440 47245
65040 47245 70242 47245
72575 47245 77445 47245
46645 47325 51502 47325
53797 47325 64440 47325
65040 47325 70262 47325
72557 47325 77445 47325
46645 47405 51534 47405
53766 47405 64440 47405
65040 47405 70294 47405
72526 47405 77445 47405
46645 47485 51566 47485
53731 47485 64440 47485
65040 47485 70326 47485
72491 47485 77445 47485
46645 47565 51610 47565
53694 47565 64440 47565
65040 47565 70370 47565
72454 47565 77445 47565
46645 47645 51661 47645
53637 47645 64440 47645
65040 47645 70421 47645
72397 47645 77445 47645
46645 47725 51716 47725
53581 47725 64440 47725
65040 47725 70476 47725
72341 47725 77445 47725
46645 47805 51793 47805
53506 47805 64440 47805
65040 47805 70553 47805
72266 47805 77445 47805
46645 47885 51871 47885
53422 47885 64440 47885
65040 47885 70631 47885
72182 47885 77445 47885
46645 47965 51987 47965
53311 47965 64440 47965
65040 47965 70747 47965
72071 47965 77445 47965
46645 48045 52127 48045
53181 48045 64440 48045
65040 48045 70887 48045
71941 48045 77445 48045
46645 48125 52342 48125
52974 48125 64440 48125
65040 48125 71102 48125
71734 48125 77445 48125
46645 48205 64440 48205
65040 48205 77445 48205
46645 48285 64440 48285
65040 48285 77445 48285
46645 48365 64440 48365
65040 48365 77445 48365
46645 48445 64440 48445
65040 48445 77445 48445
46645 48525 64440 48525
65040 48525 77445 48525
46645 48605 64440 48605
65040 48605 77445 48605
46645 48685 64440 48685
65040 48685 77445 48685
46645 48765 64440 48765
65040 48765 77445 48765
46645 48845 64440 48845
65040 48845 77445 48845
46645 48925 64440 48925
65040 48925 77445 48925
46645 49005 64440 49005
65040 49005 77445 49005
46645 49085 64440 49085
65040 49085 77445 49085
46645 49165 64440 49165
65040 49165 77445 49165
46645 49245 64387 49245
65095 49245 77445 49245
46645 49325 64345 49325
65137 49325 77445 49325
46645 49405 64322 49405
65159 49405 77445 49405
46645 49485 64315 49485
65164 49485 77445 49485
46645 49565 64323 49565
65156 49565 77445 49565
46645 49645 64348 49645
65131 49645 77445 49645
46645 49725 64392 49725
65087 49725 77445 49725
46645 49805 64463 49805
65014 49805 77445 49805
46645 49885 64605 49885
64870 49885 77445 49885
46645 49965 77445 49965
46645 50045 56288 50045
56437 50045 57078 50045
57227 50045 58648 50045
58797 50045 59438 50045
59587 50045 65228 50045
65377 50045 66018 50045
66167 50045 67588 50045
67737 50045 68378 50045
68527 50045 77445 50045
46645 50125 56081 50125
56639 50125 56871 50125
57429 50125 58441 50125
58999 50125 59231 50125
59789 50125 65021 50125
65579 50125 65811 50125
66369 50125 67381 50125
67939 50125 68171 50125
68729 50125 77445 50125
46645 50205 55988 50205
56732 50205 56778 50205
57522 50205 58348 50205
59092 50205 59138 50205
59882 50205 64928 50205
65672 50205 65718 50205
66462 50205 67288 50205
68032 50205 68078 50205
68822 50205 77445 50205
46645 50285 55929 50285
57582 50285 58289 50285
59942 50285 64869 50285
66522 50285 67229 50285
68882 50285 77445 50285
46645 50365 55891 50365
57619 50365 58251 50365
59979 50365 64831 50365
66559 50365 67191 50365
68919 50365 77445 50365
46645 50445 55870 50445
57641 50445 58230 50445
60001 50445 64810 50445
66581 50445 67170 50445
68941 50445 77445 50445
46645 50525 47770 50525
48369 50525 55861 50525
57649 50525 58221 50525
60009 50525 64801 50525
66589 50525 67161 50525
68949 50525 75720 50525
76319 50525 77445 50525
46645 50605 47579 50605
48565 50605 55863 50605
57647 50605 58223 50605
60007 50605 64803 50605
66587 50605 67163 50605
68947 50605 75529 50605
76515 50605 77445 50605
46645 50685 47456 50685
48683 50685 55879 50685
57630 50685 58239 50685
59990 50685 62087 50685
62645 50685 64819 50685
66570 50685 67179 50685
68930 50685 75406 50685
76633 50685 77445 50685
46645 50765 47362 50765
48779 50765 55911 50765
57597 50765 58271 50765
59957 50765 61938 50765
62793 50765 64851 50765
66537 50765 67211 50765
68897 50765 75312 50765
76729 50765 77445 50765
46645 50845 47281 50845
48859 50845 55961 50845
57546 50845 58321 50845
59906 50845 61841 50845
62890 50845 64901 50845
66486 50845 67261 50845
68846 50845 75231 50845
76809 50845 77445 50845
46645 50925 47224 50925
48918 50925 56036 50925
56680 50925 56826 50925
57470 50925 58396 50925
59040 50925 59186 50925
59830 50925 61770 50925
62962 50925 64976 50925
65620 50925 65766 50925
66410 50925 67336 50925
67980 50925 68126 50925
68770 50925 75174 50925
76868 50925 77445 50925
46645 51005 47169 51005
48971 51005 56174 51005
56543 51005 56964 51005
57333 51005 58534 51005
58903 51005 59324 51005
59693 51005 61715 51005
63016 51005 65114 51005
65483 51005 65904 51005
66273 51005 67474 51005
67843 51005 68264 51005
68633 51005 75119 51005
76921 51005 77445 51005
46645 51085 47131 51085
49010 51085 61677 51085
63054 51085 75081 51085
76960 51085 77445 51085
46645 51165 47097 51165
49044 51165 61646 51165
63087 51165 75047 51165
76994 51165 77445 51165
46645 51245 47071 51245
49071 51245 61628 51245
63102 51245 75021 51245
77021 51245 77445 51245
46645 51325 47054 51325
49087 51325 61617 51325
63113 51325 75004 51325
77037 51325 77445 51325
46645 51405 47037 51405
49103 51405 56112 51405
56610 51405 56902 51405
57400 51405 58472 51405
58970 51405 59262 51405
59760 51405 61616 51405
63112 51405 65052 51405
65550 51405 65842 51405
66340 51405 67412 51405
67910 51405 68202 51405
68700 51405 74987 51405
77053 51405 77445 51405
46645 51485 47036 51485
49104 51485 56008 51485
56712 51485 56798 51485
57502 51485 58368 51485
59072 51485 59158 51485
59862 51485 61622 51485
63109 51485 64948 51485
65652 51485 65738 51485
66442 51485 67308 51485
68012 51485 68098 51485
68802 51485 74986 51485
77054 51485 77445 51485
46645 51565 47035 51565
49103 51565 55943 51565
57568 51565 58303 51565
59928 51565 61637 51565
63091 51565 64883 51565
66508 51565 67243 51565
68868 51565 74985 51565
77053 51565 77445 51565
46645 51645 47040 51645
49102 51645 55900 51645
57611 51645 58260 51645
59971 51645 61663 51645
63066 51645 64840 51645
66551 51645 67200 51645
68911 51645 74990 51645
77052 51645 77445 51645
46645 51725 47055 51725
49085 51725 55874 51725
57637 51725 58234 51725
59997 51725 61695 51725
63031 51725 64814 51725
66577 51725 67174 51725
68937 51725 75005 51725
77035 51725 77445 51725
46645 51805 47069 51805
49067 51805 55861 51805
57649 51805 58221 51805
60009 51805 61747 51805
62981 51805 64801 51805
66589 51805 67161 51805
68949 51805 75019 51805
77017 51805 77445 51805
46645 51885 47101 51885
49040 51885 55859 51885
57648 51885 58219 51885
60008 51885 61811 51885
62920 51885 64799 51885
66588 51885 67159 51885
68948 51885 75051 51885
76990 51885 77445 51885
46645 51965 47133 51965
49004 51965 55874 51965
57634 51965 58234 51965
59994 51965 61894 51965
62836 51965 64814 51965
66574 51965 67174 51965
68934 51965 75083 51965
76954 51965 77445 51965
46645 52045 47177 52045
48966 52045 55903 52045
57606 52045 58263 52045
59966 52045 62015 52045
62714 52045 64843 52045
66546 52045 67203 52045
68906 52045 75127 52045
76916 52045 77445 52045
46645 52125 47228 52125
48909 52125 55948 52125
57560 52125 58308 52125
59920 52125 62265 52125
62451 52125 64888 52125
66500 52125 67248 52125
68860 52125 75178 52125
76859 52125 77445 52125
46645 52205 47292 52205
48851 52205 56016 52205
56701 52205 56806 52205
57491 52205 58376 52205
59061 52205 59166 52205
59851 52205 64956 52205
65641 52205 65746 52205
66431 52205 67316 52205
68001 52205 68106 52205
68791 52205 75242 52205
76801 52205 77445 52205
46645 52285 47369 52285
48767 52285 56128 52285
56590 52285 56918 52285
57380 52285 58488 52285
58950 52285 59278 52285
59740 52285 65068 52285
65530 52285 65858 52285
66320 52285 67428 52285
67890 52285 68218 52285
68680 52285 75319 52285
76717 52285 77445 52285
46645 52365 47471 52365
48670 52365 75421 52365
76620 52365 77445 52365
46645 52445 47601 52445
48542 52445 75551 52445
76492 52445 77445 52445
46645 52525 47820 52525
48331 52525 75770 52525
76281 52525 77445 52525
46645 52605 77445 52605
46645 52685 77445 52685
46645 52765 77445 52765
46645 52845 77445 52845
46645 52925 77445 52925
$endFILLSEGMENTS
$endCZONE_OUTLINE
$EndBOARD
