EESchema Schematic File Version 2  date Fri 02 Dec 2011 01:31:17 CST
LIBS:power
LIBS:device
LIBS:transistors
LIBS:conn
LIBS:linear
LIBS:regul
LIBS:74xx
LIBS:cmos4000
LIBS:adc-dac
LIBS:memory
LIBS:xilinx
LIBS:special
LIBS:microcontrollers
LIBS:dsp
LIBS:microchip
LIBS:analog_switches
LIBS:motorola
LIBS:texas
LIBS:intel
LIBS:audio
LIBS:interface
LIBS:digital-audio
LIBS:philips
LIBS:display
LIBS:cypress
LIBS:siliconi
LIBS:opto
LIBS:atmel
LIBS:contrib
LIBS:valves
LIBS:reg_TPS3809
LIBS:amp_lmv321
LIBS:amp-MAX4239ASA
LIBS:common_created
LIBS:opencurrent-cache
EELAYER 24  0
EELAYER END
$Descr A4 11700 8267
Sheet 1 1
Title "OpenCurrent"
Date "2 dec 2011"
Rev "AA"
Comp "Mecharobotics.wordpress.com"
Comment1 ""
Comment2 ""
Comment3 ""
Comment4 ""
$EndDescr
Wire Wire Line
	2250 2400 2250 2600
Wire Wire Line
	2250 2400 2150 2400
Wire Wire Line
	10300 4350 10300 4150
Wire Wire Line
	10300 4350 10400 4350
Wire Wire Line
	4900 2800 4900 1950
Wire Wire Line
	4900 1950 5100 1950
Wire Wire Line
	4700 3500 2150 3500
Connection ~ 10300 4250
Wire Wire Line
	10300 4150 10400 4150
Connection ~ 2250 2500
Wire Wire Line
	2250 2600 2150 2600
Wire Wire Line
	6850 4950 6850 5200
Connection ~ 8400 5600
Wire Wire Line
	8400 5600 8400 5700
Connection ~ 9500 3400
Wire Wire Line
	9650 3300 9500 3300
Wire Wire Line
	9500 3300 9500 4800
Wire Wire Line
	8850 4800 9000 4800
Connection ~ 8300 2800
Wire Wire Line
	8200 2800 8300 2800
Wire Wire Line
	8300 2700 8300 3050
Connection ~ 8300 3900
Wire Wire Line
	8500 3900 8300 3900
Wire Wire Line
	7700 3650 7700 3700
Wire Wire Line
	7700 3700 7800 3700
Wire Wire Line
	8200 5450 8200 5600
Wire Wire Line
	7800 3500 6050 3500
Wire Wire Line
	6050 3500 6050 2450
Wire Wire Line
	5900 1850 6050 1850
Wire Wire Line
	6050 1850 6050 1950
Connection ~ 5450 5100
Wire Wire Line
	5450 5650 5450 5100
Connection ~ 6850 5100
Wire Wire Line
	6450 5700 6450 6100
Wire Wire Line
	6450 6100 7500 6100
Wire Wire Line
	7500 6100 7500 5600
Connection ~ 6850 6500
Wire Wire Line
	6850 6600 6850 6000
Connection ~ 5800 6500
Wire Wire Line
	6850 6500 1650 6500
Connection ~ 4950 6500
Wire Wire Line
	5800 6500 5800 6300
Connection ~ 3800 4450
Wire Wire Line
	2500 4450 3800 4450
Connection ~ 2550 1800
Wire Wire Line
	2550 2750 2550 1500
Wire Wire Line
	2550 1500 5000 1500
Wire Wire Line
	5000 1500 5000 1750
Wire Wire Line
	5000 1750 5100 1750
Connection ~ 2550 3500
Connection ~ 4250 1850
Wire Wire Line
	4250 2800 4250 1800
Wire Wire Line
	4250 1800 3850 1800
Wire Wire Line
	2150 2500 2550 2500
Wire Wire Line
	1700 4350 1650 4350
Wire Wire Line
	1700 4900 1650 4900
Wire Wire Line
	4950 5850 4950 5700
Wire Wire Line
	4950 5700 4800 5700
Wire Wire Line
	3500 6200 3500 6500
Wire Wire Line
	1650 6500 1650 6350
Wire Wire Line
	2500 4900 3100 4900
Wire Wire Line
	4950 6500 4950 6250
Connection ~ 3500 6500
Wire Wire Line
	4300 5700 3900 5700
Wire Wire Line
	1650 4350 1650 5750
Connection ~ 1650 4900
Wire Wire Line
	2550 3250 2550 3500
Wire Wire Line
	2550 1800 3050 1800
Connection ~ 2550 2500
Wire Wire Line
	4250 1850 5100 1850
Wire Wire Line
	4250 3500 4250 3300
Connection ~ 4250 3500
Wire Wire Line
	2500 4350 3800 4350
Wire Wire Line
	3800 4350 3800 5100
Wire Wire Line
	5800 5600 5800 5800
Wire Wire Line
	5800 5700 6000 5700
Connection ~ 5800 5700
Wire Wire Line
	6000 5700 6000 5500
Wire Wire Line
	6000 5500 6450 5500
Wire Wire Line
	7500 5600 7450 5600
Wire Wire Line
	3800 5100 6850 5100
Connection ~ 5800 5100
Wire Wire Line
	5450 6050 5450 6500
Connection ~ 5450 6500
Wire Wire Line
	7800 3300 7550 3300
Wire Wire Line
	7550 3300 7550 4700
Wire Wire Line
	7550 4700 8200 4700
Wire Wire Line
	8200 4700 8200 4950
Wire Wire Line
	8000 5600 10000 5600
Wire Wire Line
	10000 5600 10000 4250
Wire Wire Line
	10000 4250 10400 4250
Connection ~ 8200 5600
Wire Wire Line
	8300 4050 8300 3750
Wire Wire Line
	8900 3900 9000 3900
Wire Wire Line
	9000 3900 9000 4000
Wire Wire Line
	7750 2900 7750 2800
Wire Wire Line
	7750 2800 7800 2800
Wire Wire Line
	8350 4800 8200 4800
Connection ~ 8200 4800
Wire Wire Line
	9500 3400 8850 3400
Wire Wire Line
	10150 3300 10400 3300
Wire Wire Line
	3100 4900 3100 5700
Wire Wire Line
	5350 3700 5350 3500
Wire Wire Line
	2150 3600 2250 3600
Connection ~ 2250 3500
Wire Wire Line
	10400 3200 10300 3200
Connection ~ 10300 3300
Wire Wire Line
	3850 1900 4700 1900
Wire Wire Line
	4700 1900 4700 2800
Wire Wire Line
	5350 3500 4900 3500
Wire Wire Line
	10400 3400 10300 3400
Wire Wire Line
	10300 3400 10300 3200
Wire Wire Line
	2150 3400 2250 3400
Wire Wire Line
	2250 3400 2250 3600
$Comp
L TPS3809_AB U4
U 1 1 4ED7182C
P 3500 5850
F 0 "U4" H 3500 6150 60  0000 C CNN
F 1 "TPS3809_AB" H 3550 5600 60  0000 L CNN
	1    3500 5850
	1    0    0    -1  
$EndComp
$Comp
L R_SENSE R4
U 1 1 4EC5E90D
P 4800 3100
F 0 "R4" H 4800 2950 60  0000 C CNN
F 1 "10m 5%" H 4850 3300 60  0000 C CNN
	1    4800 3100
	0    1    1    0   
$EndComp
NoConn ~ 2500 5000
NoConn ~ 2500 4800
NoConn ~ 8950 -650
NoConn ~ 9000 1550
NoConn ~ 9000 1450
NoConn ~ 9000 1350
NoConn ~ 9000 1250
$Comp
L CONN_4 P1
U 1 1 4EC363E9
P 9350 1400
F 0 "P1" V 9300 1400 50  0000 C CNN
F 1 "CASE" V 9400 1400 50  0000 C CNN
	1    9350 1400
	1    0    0    -1  
$EndComp
NoConn ~ 2500 4250
Text Notes 600  600  0    60   ~ 0
Design from David Jones at EEVBlog.com (CC Share Alike)\nModified by Dustin Reynolds 2011
Text Notes 2500 4450 0    60   ~ 0
ON
Text Notes 2500 4350 0    60   ~ 0
ON-LED
Text Notes 2500 4250 0    60   ~ 0
OFF
Text Notes 5050 1750 0    60   ~ 0
nA
Text Notes 5050 1850 0    60   ~ 0
uA
Text Notes 5050 1950 0    60   ~ 0
mA
Text Notes 3750 1900 0    60   ~ 0
mA
Text Notes 3750 1800 0    60   ~ 0
uA
Text Notes 3750 1700 0    60   ~ 0
nA
Text Label 8700 5600 0    60   ~ 0
GND
$Comp
L GND #PWR01
U 1 1 4EB60E65
P 8400 5700
F 0 "#PWR01" H 8400 5700 30  0001 C CNN
F 1 "GND" H 8400 5630 30  0001 C CNN
	1    8400 5700
	1    0    0    -1  
$EndComp
$Comp
L R R10
U 1 1 4EB60D7B
P 8600 4800
F 0 "R10" V 8680 4800 50  0000 C CNN
F 1 "75K 0.1%" V 8500 4800 50  0000 C CNN
	1    8600 4800
	0    1    1    0   
$EndComp
$Comp
L R R11
U 1 1 4EB60D76
P 9250 4800
F 0 "R11" V 9330 4800 50  0000 C CNN
F 1 "24K 0.1%" V 9150 4800 50  0000 C CNN
	1    9250 4800
	0    1    1    0   
$EndComp
$Comp
L R R12
U 1 1 4EB60D69
P 9900 3300
F 0 "R12" V 9980 3300 50  0000 C CNN
F 1 "100R 1%" V 9800 3300 50  0000 C CNN
	1    9900 3300
	0    1    1    0   
$EndComp
NoConn ~ 8800 3200
NoConn ~ 8800 3600
$Comp
L GND #PWR02
U 1 1 4EB60D40
P 7750 2900
F 0 "#PWR02" H 7750 2900 30  0001 C CNN
F 1 "GND" H 7750 2830 30  0001 C CNN
	1    7750 2900
	1    0    0    -1  
$EndComp
$Comp
L C C2
U 1 1 4EB60D39
P 8000 2800
F 0 "C2" H 8050 2900 50  0000 L CNN
F 1 "0.1u 6V" H 8050 2700 50  0000 L CNN
	1    8000 2800
	0    1    1    0   
$EndComp
$Comp
L VCC #PWR03
U 1 1 4EB60D32
P 8300 2700
F 0 "#PWR03" H 8300 2800 30  0001 C CNN
F 1 "VCC" H 8300 2800 30  0000 C CNN
	1    8300 2700
	1    0    0    -1  
$EndComp
$Comp
L GND #PWR04
U 1 1 4EB60D06
P 9000 4000
F 0 "#PWR04" H 9000 4000 30  0001 C CNN
F 1 "GND" H 9000 3930 30  0001 C CNN
	1    9000 4000
	1    0    0    -1  
$EndComp
$Comp
L C C3
U 1 1 4EB60CF9
P 8700 3900
F 0 "C3" H 8750 4000 50  0000 L CNN
F 1 "0.1u 6V" H 8750 3800 50  0000 L CNN
	1    8700 3900
	0    1    1    0   
$EndComp
$Comp
L VSS #PWR05
U 1 1 4EB60CEE
P 8300 4050
F 0 "#PWR05" H 8300 4050 30  0001 C CNN
F 1 "VSS" H 8300 3980 30  0000 C CNN
	1    8300 4050
	1    0    0    -1  
$EndComp
$Comp
L VCC #PWR06
U 1 1 4EB60CC7
P 7700 3650
F 0 "#PWR06" H 7700 3750 30  0001 C CNN
F 1 "VCC" H 7700 3750 30  0000 C CNN
	1    7700 3650
	1    0    0    -1  
$EndComp
$Comp
L R R9
U 1 1 4EB60C5F
P 8200 5200
F 0 "R9" V 8280 5200 50  0000 C CNN
F 1 "1K 0.1%" V 8100 5200 50  0000 C CNN
	1    8200 5200
	1    0    0    -1  
$EndComp
$Comp
L R R7
U 1 1 4EB60C4E
P 6050 2200
F 0 "R7" V 6130 2200 50  0000 C CNN
F 1 "100R 1%" V 5950 2200 50  0000 C CNN
	1    6050 2200
	1    0    0    -1  
$EndComp
$Comp
L C C1
U 1 1 4EB60BCA
P 5450 5850
F 0 "C1" H 5500 5950 50  0000 L CNN
F 1 "0.1u 16 V" V 5300 5900 50  0000 L CNN
	1    5450 5850
	1    0    0    -1  
$EndComp
$Comp
L VCC #PWR07
U 1 1 4EB60BA9
P 6850 4950
F 0 "#PWR07" H 6850 5050 30  0001 C CNN
F 1 "VCC" H 6850 5050 30  0000 C CNN
	1    6850 4950
	1    0    0    -1  
$EndComp
$Comp
L R R8
U 1 1 4EB60B69
P 7750 5600
F 0 "R8" V 7830 5600 50  0000 C CNN
F 1 "100R 1%" V 7650 5600 50  0000 C CNN
	1    7750 5600
	0    1    1    0   
$EndComp
$Comp
L GND #PWR08
U 1 1 4EB60B55
P 5350 3700
F 0 "#PWR08" H 5350 3700 30  0001 C CNN
F 1 "GND" H 5350 3630 30  0001 C CNN
	1    5350 3700
	1    0    0    -1  
$EndComp
$Comp
L VSS #PWR09
U 1 1 4EB60B06
P 6850 6600
F 0 "#PWR09" H 6850 6600 30  0001 C CNN
F 1 "VSS" H 6850 6530 30  0000 C CNN
	1    6850 6600
	1    0    0    -1  
$EndComp
$Comp
L R R6
U 1 1 4EB60A8B
P 5800 6050
F 0 "R6" V 5880 6050 50  0000 C CNN
F 1 "100K 1%" V 5700 6050 50  0000 C CNN
	1    5800 6050
	1    0    0    -1  
$EndComp
$Comp
L R R5
U 1 1 4EB60A89
P 5800 5350
F 0 "R5" V 5880 5350 50  0000 C CNN
F 1 "100K 1%" V 5700 5350 50  0000 C CNN
	1    5800 5350
	1    0    0    -1  
$EndComp
NoConn ~ 3850 1700
$Comp
L R R2
U 1 1 4EB608EA
P 4250 3050
F 0 "R2" V 4330 3050 50  0000 C CNN
F 1 "10R 0.1%" V 4150 3050 50  0000 C CNN
	1    4250 3050
	1    0    0    -1  
$EndComp
$Comp
L R R1
U 1 1 4EB60863
P 2550 3000
F 0 "R1" V 2630 3000 50  0000 C CNN
F 1 "10K 0.1%" V 2450 3000 50  0000 C CNN
	1    2550 3000
	1    0    0    -1  
$EndComp
$Comp
L 4MM_SOCKET J4
U 1 1 4EB5F031
P 10650 4250
F 0 "J4" H 10650 4050 60  0000 C CNN
F 1 "4MM_SOCKET" H 10700 4450 60  0000 C CNN
	1    10650 4250
	-1   0    0    1   
$EndComp
$Comp
L 4MM_SOCKET J3
U 1 1 4EB5F02E
P 10650 3300
F 0 "J3" H 10650 3100 60  0000 C CNN
F 1 "4MM_SOCKET" H 10700 3500 60  0000 C CNN
	1    10650 3300
	-1   0    0    1   
$EndComp
$Comp
L 4MM_SOCKET J2
U 1 1 4EB5F025
P 1900 3500
F 0 "J2" H 1900 3300 60  0000 C CNN
F 1 "4MM_SOCKET" H 1950 3700 60  0000 C CNN
	1    1900 3500
	1    0    0    -1  
$EndComp
$Comp
L 4MM_SOCKET J1
U 1 1 4EB5F021
P 1900 2500
F 0 "J1" H 1900 2300 60  0000 C CNN
F 1 "4MM_SOCKET" H 1950 2700 60  0000 C CNN
	1    1900 2500
	1    0    0    -1  
$EndComp
$Comp
L DP3T SW2
U 1 1 4EB5EEEA
P 3450 1800
F 0 "SW2" H 3250 2000 60  0000 C CNN
F 1 "DP3T" H 3700 2000 60  0000 C CNN
	1    3450 1800
	1    0    0    -1  
$EndComp
$Comp
L DP3T SW2
U 2 1 4EB5EEE6
P 5500 1850
F 0 "SW2" H 5300 2050 60  0000 C CNN
F 1 "DP3T" H 5750 2050 60  0000 C CNN
	2    5500 1850
	-1   0    0    -1  
$EndComp
$Comp
L DP3T SW1
U 1 1 4EB5EEDA
P 2100 4350
F 0 "SW1" H 1900 4550 60  0000 C CNN
F 1 "DP3T" H 2350 4550 60  0000 C CNN
	1    2100 4350
	1    0    0    -1  
$EndComp
$Comp
L DP3T SW1
U 2 1 4EB5EED2
P 2100 4900
F 0 "SW1" H 1900 5100 60  0000 C CNN
F 1 "DP3T" H 2350 5100 60  0000 C CNN
	2    2100 4900
	1    0    0    -1  
$EndComp
$Comp
L LED D1
U 1 1 4EB5EC36
P 4950 6050
F 0 "D1" H 4950 6150 50  0000 C CNN
F 1 "LED" H 4950 5950 50  0000 C CNN
	1    4950 6050
	0    1    1    0   
$EndComp
$Comp
L R R3
U 1 1 4EB5EC27
P 4550 5700
F 0 "R3" V 4630 5700 50  0000 C CNN
F 1 "470" V 4550 5700 50  0000 C CNN
	1    4550 5700
	0    1    1    0   
$EndComp
$Comp
L MAX4239ASA+ U3
U 1 1 4EB5DCBA
P 8300 3400
F 0 "U3" H 8900 3700 70  0000 C CNN
F 1 "MAX4239ASA+" H 8750 3850 70  0000 C CNN
	1    8300 3400
	1    0    0    -1  
$EndComp
$Comp
L LMV321AS5X U2
U 1 1 4EB5DAA1
P 6950 5600
F 0 "U2" H 7150 5950 70  0000 C CNN
F 1 "LMV321AS5X" H 7150 5850 70  0000 C CNN
	1    6950 5600
	1    0    0    -1  
$EndComp
$Comp
L BATTERY BT1
U 1 1 4EB5D52A
P 1650 6050
F 0 "BT1" V 1500 6250 50  0000 C CNN
F 1 "2032 3V Lithium Battery" V 1650 6750 50  0000 C CNN
	1    1650 6050
	0    1    1    0   
$EndComp
$EndSCHEMATC
