G04 (created by PCBNEW-RS274X (2011-07-08 BZR 3044)-stable) date 1/9/2012 10:26:03 PM*
G01*
G70*
G90*
%MOIN*%
G04 Gerber Fmt 3.4, Leading zero omitted, Abs format*
%FSLAX34Y34*%
G04 APERTURE LIST*
%ADD10C,0.006000*%
%ADD11R,0.078000X0.020900*%
%ADD12R,0.068900X0.043300*%
%ADD13R,0.055000X0.035000*%
%ADD14R,0.035000X0.055000*%
%ADD15C,0.050000*%
%ADD16C,0.157000*%
%ADD17R,0.035000X0.063000*%
%ADD18C,0.100000*%
%ADD19R,0.039400X0.055100*%
%ADD20R,0.041300X0.023600*%
%ADD21R,0.400000X0.400000*%
%ADD22R,0.320000X0.300000*%
%ADD23C,0.190000*%
%ADD24C,0.035000*%
%ADD25C,0.030000*%
%ADD26C,0.100000*%
%ADD27C,0.010000*%
%ADD28C,0.040000*%
%ADD29C,0.020000*%
%ADD30C,0.050000*%
G04 APERTURE END LIST*
G54D10*
G54D11*
X63300Y-45985D03*
X63300Y-46485D03*
X63300Y-46985D03*
X63300Y-47485D03*
X61359Y-45985D03*
X61359Y-46485D03*
X61359Y-46985D03*
X61359Y-47485D03*
G54D12*
X56565Y-47235D03*
X57648Y-47235D03*
X56565Y-47786D03*
X57648Y-47786D03*
G54D13*
X66070Y-48045D03*
X66070Y-47295D03*
X59780Y-46985D03*
X59780Y-46235D03*
X65520Y-44045D03*
X65520Y-44795D03*
G54D14*
X55345Y-49000D03*
X56095Y-49000D03*
X57805Y-49010D03*
X57055Y-49010D03*
G54D13*
X61510Y-49845D03*
X61510Y-49095D03*
G54D14*
X66125Y-46110D03*
X66875Y-46110D03*
G54D13*
X66870Y-45135D03*
X66870Y-44385D03*
X64700Y-47155D03*
X64700Y-46405D03*
X67830Y-44365D03*
X67830Y-45115D03*
X64250Y-44315D03*
X64250Y-43565D03*
G54D14*
X62655Y-44790D03*
X63405Y-44790D03*
X61115Y-44790D03*
X61865Y-44790D03*
X68385Y-43400D03*
X67635Y-43400D03*
G54D15*
X65300Y-50540D03*
X65300Y-51840D03*
X66090Y-50540D03*
X66090Y-51840D03*
X67660Y-50540D03*
X67660Y-51840D03*
X68450Y-50540D03*
X68450Y-51840D03*
X56360Y-50540D03*
X56360Y-51840D03*
X57150Y-50540D03*
X57150Y-51840D03*
X58720Y-50540D03*
X58720Y-51840D03*
X59510Y-50540D03*
X59510Y-51840D03*
G54D10*
G36*
X56467Y-44411D02*
X55494Y-43404D01*
X56501Y-42431D01*
X57474Y-43438D01*
X56467Y-44411D01*
X56467Y-44411D01*
G37*
G36*
X65243Y-35936D02*
X64270Y-34929D01*
X65277Y-33956D01*
X66250Y-34963D01*
X65243Y-35936D01*
X65243Y-35936D01*
G37*
G54D16*
X48070Y-34910D03*
X48070Y-51520D03*
X76020Y-34910D03*
X76020Y-51520D03*
G54D17*
X61540Y-51380D03*
X63190Y-51380D03*
G54D18*
X62365Y-51380D03*
G54D19*
X62792Y-48970D03*
X63166Y-49836D03*
X62418Y-49836D03*
G54D20*
X67180Y-47190D03*
X67180Y-47564D03*
X67180Y-47938D03*
X68243Y-47190D03*
X68243Y-47938D03*
G54D21*
X52650Y-39465D03*
G54D22*
X48570Y-39465D03*
G54D23*
X52650Y-39465D03*
G54D21*
X52650Y-46965D03*
G54D22*
X48570Y-46965D03*
G54D23*
X52650Y-46965D03*
G54D21*
X71410Y-46965D03*
G54D22*
X75490Y-46965D03*
G54D23*
X71410Y-46965D03*
G54D21*
X71410Y-39465D03*
G54D22*
X75490Y-39465D03*
G54D23*
X71410Y-39465D03*
G54D24*
X64740Y-49480D03*
X64730Y-41780D03*
X65270Y-45480D03*
X65260Y-37780D03*
G54D25*
X59780Y-46235D02*
X59780Y-45510D01*
X59780Y-45510D02*
X58760Y-44490D01*
X64250Y-43565D02*
X64250Y-42490D01*
X64250Y-42490D02*
X64270Y-42470D01*
G54D26*
X75490Y-39465D02*
X71410Y-39465D01*
G54D25*
X65520Y-44045D02*
X65520Y-42470D01*
X65530Y-42610D02*
X65530Y-42470D01*
X65530Y-42480D02*
X65530Y-42610D01*
X65520Y-42470D02*
X65530Y-42480D01*
G54D27*
X67830Y-44365D02*
X67830Y-44060D01*
X68020Y-43870D02*
X68020Y-42470D01*
X67830Y-44060D02*
X68020Y-43870D01*
G54D28*
X56565Y-47235D02*
X56565Y-46685D01*
X68405Y-42470D02*
X71410Y-39465D01*
X60780Y-42470D02*
X64270Y-42470D01*
X58950Y-44300D02*
X60780Y-42470D01*
X64270Y-42470D02*
X65530Y-42470D01*
X65530Y-42470D02*
X68020Y-42470D01*
X68020Y-42470D02*
X68405Y-42470D01*
X56565Y-46685D02*
X58760Y-44490D01*
X58760Y-44490D02*
X58950Y-44300D01*
G54D27*
X60440Y-51860D02*
X60440Y-51880D01*
X64700Y-47210D02*
X63810Y-48100D01*
X63810Y-48100D02*
X61210Y-48100D01*
X61210Y-48100D02*
X60440Y-48870D01*
X60440Y-48870D02*
X60440Y-51860D01*
X64700Y-47155D02*
X64700Y-47210D01*
X59330Y-52450D02*
X58720Y-51840D01*
X59870Y-52450D02*
X59330Y-52450D01*
X60440Y-51880D02*
X59870Y-52450D01*
X66090Y-51840D02*
X66080Y-51840D01*
X63450Y-48970D02*
X62792Y-48970D01*
X63828Y-49348D02*
X63450Y-48970D01*
X63828Y-50848D02*
X63828Y-49348D01*
X64372Y-51392D02*
X63828Y-50848D01*
X65632Y-51392D02*
X64372Y-51392D01*
X66080Y-51840D02*
X65632Y-51392D01*
X60220Y-48910D02*
X60220Y-51130D01*
X58545Y-47235D02*
X60220Y-48910D01*
X57648Y-47235D02*
X58545Y-47235D01*
X60220Y-51130D02*
X59510Y-51840D01*
X63405Y-44790D02*
X63775Y-44790D01*
X63775Y-44790D02*
X64250Y-44315D01*
X63300Y-46985D02*
X62685Y-46985D01*
X62840Y-45355D02*
X63405Y-44790D01*
X62840Y-45420D02*
X62840Y-45355D01*
X62550Y-45710D02*
X62840Y-45420D01*
X62550Y-46850D02*
X62550Y-45710D01*
X62685Y-46985D02*
X62550Y-46850D01*
X61865Y-44790D02*
X62655Y-44790D01*
X61115Y-44790D02*
X61100Y-44790D01*
X60825Y-46485D02*
X61359Y-46485D01*
X60580Y-46240D02*
X60825Y-46485D01*
X60580Y-45310D02*
X60580Y-46240D01*
X61100Y-44790D02*
X60580Y-45310D01*
X67635Y-43400D02*
X66990Y-43400D01*
X61965Y-43940D02*
X61115Y-44790D01*
X64670Y-43940D02*
X61965Y-43940D01*
X65150Y-44420D02*
X64670Y-43940D01*
X65970Y-44420D02*
X65150Y-44420D01*
X66990Y-43400D02*
X65970Y-44420D01*
X56484Y-43421D02*
X58769Y-43421D01*
X64930Y-51120D02*
X67660Y-51120D01*
X64490Y-50680D02*
X64930Y-51120D01*
X64490Y-49730D02*
X64490Y-50680D01*
X64740Y-49480D02*
X64490Y-49730D01*
X60410Y-41780D02*
X64730Y-41780D01*
X58769Y-43421D02*
X60410Y-41780D01*
X67660Y-51840D02*
X67660Y-51190D01*
X67660Y-51190D02*
X67660Y-51120D01*
X67660Y-51120D02*
X67660Y-50540D01*
X61510Y-49845D02*
X61510Y-51350D01*
X61510Y-51350D02*
X61540Y-51380D01*
X61510Y-49095D02*
X62155Y-49095D01*
X62730Y-49400D02*
X63166Y-49836D01*
X62460Y-49400D02*
X62730Y-49400D01*
X62155Y-49095D02*
X62460Y-49400D01*
X64700Y-46405D02*
X63380Y-46405D01*
X63380Y-46405D02*
X63300Y-46485D01*
X68243Y-47938D02*
X67998Y-47938D01*
X67998Y-47938D02*
X67715Y-47655D01*
X67830Y-47485D02*
X67830Y-47540D01*
X67830Y-45115D02*
X67830Y-47485D01*
X67432Y-47938D02*
X67180Y-47938D01*
X67830Y-47540D02*
X67715Y-47655D01*
X67715Y-47655D02*
X67432Y-47938D01*
G54D29*
X68385Y-43400D02*
X68385Y-43940D01*
X68385Y-43940D02*
X71410Y-46965D01*
G54D26*
X75490Y-46965D02*
X71410Y-46965D01*
G54D25*
X58720Y-50540D02*
X58720Y-50990D01*
X54510Y-48825D02*
X52650Y-46965D01*
X54510Y-50920D02*
X54510Y-48825D01*
X56040Y-52450D02*
X54510Y-50920D01*
X57420Y-52450D02*
X56040Y-52450D01*
X57760Y-52110D02*
X57420Y-52450D01*
X57760Y-51950D02*
X57760Y-52110D01*
X58720Y-50990D02*
X57760Y-51950D01*
G54D27*
X56360Y-51840D02*
X56160Y-51840D01*
X55345Y-51025D02*
X55345Y-49000D01*
X56160Y-51840D02*
X55345Y-51025D01*
X55345Y-49000D02*
X55150Y-49000D01*
G54D30*
X53055Y-46965D02*
X55120Y-49030D01*
X53055Y-46965D02*
X52650Y-46965D01*
G54D27*
X55150Y-49000D02*
X55120Y-49030D01*
G54D26*
X48570Y-46965D02*
X52650Y-46965D01*
G54D30*
X52650Y-46965D02*
X53310Y-46965D01*
G54D28*
X58286Y-47786D02*
X59510Y-49010D01*
X58286Y-47786D02*
X57648Y-47786D01*
X59510Y-50540D02*
X59510Y-49010D01*
G54D29*
X57150Y-51840D02*
X57150Y-51410D01*
X57805Y-50755D02*
X57805Y-49010D01*
X57150Y-51410D02*
X57805Y-50755D01*
X57150Y-50540D02*
X57150Y-50020D01*
X57805Y-49365D02*
X57805Y-49010D01*
X57150Y-50020D02*
X57805Y-49365D01*
G54D28*
X52650Y-39465D02*
X52650Y-41710D01*
X55966Y-47786D02*
X56565Y-47786D01*
X55590Y-47410D02*
X55966Y-47786D01*
X55590Y-44650D02*
X55590Y-47410D01*
X52650Y-41710D02*
X55590Y-44650D01*
G54D30*
X56580Y-49010D02*
X56320Y-49010D01*
G54D27*
X56310Y-49000D02*
X56095Y-49000D01*
G54D30*
X56320Y-49010D02*
X56310Y-49000D01*
X56830Y-49010D02*
X56580Y-49010D01*
X56580Y-49010D02*
X56575Y-49010D01*
G54D27*
X57055Y-49010D02*
X56830Y-49010D01*
G54D30*
X56575Y-49010D02*
X56565Y-49000D01*
G54D26*
X52650Y-39465D02*
X48570Y-39465D01*
G54D25*
X56565Y-47786D02*
X56565Y-49000D01*
X56565Y-49000D02*
X56560Y-48995D01*
X56560Y-48995D02*
X56560Y-48990D01*
X56560Y-48990D02*
X56560Y-49000D01*
G54D27*
X67180Y-47190D02*
X67180Y-46415D01*
X67180Y-46415D02*
X66875Y-46110D01*
X66875Y-46110D02*
X66875Y-45140D01*
X66875Y-45140D02*
X66870Y-45135D01*
X66090Y-50540D02*
X66090Y-48065D01*
X66090Y-48065D02*
X66070Y-48045D01*
X68450Y-50540D02*
X68450Y-48400D01*
X68450Y-48400D02*
X68480Y-48400D01*
X68680Y-47730D02*
X68680Y-47627D01*
X68680Y-47730D02*
X68680Y-48200D01*
X68480Y-48400D02*
X68680Y-48200D01*
X68680Y-47627D02*
X68243Y-47190D01*
X61359Y-46985D02*
X59780Y-46985D01*
X63300Y-47485D02*
X62575Y-47485D01*
X62075Y-46985D02*
X61359Y-46985D01*
X62575Y-47485D02*
X62075Y-46985D01*
X66090Y-48065D02*
X66070Y-48045D01*
X63300Y-47485D02*
X63765Y-47485D01*
X64190Y-46790D02*
X65450Y-46790D01*
X64080Y-46900D02*
X64190Y-46790D01*
X64080Y-47170D02*
X64080Y-46900D01*
X63765Y-47485D02*
X64080Y-47170D01*
X66125Y-46110D02*
X66125Y-46115D01*
X65575Y-48045D02*
X66070Y-48045D01*
X65450Y-47920D02*
X65575Y-48045D01*
X65450Y-46790D02*
X65450Y-47920D01*
X66125Y-46115D02*
X65450Y-46790D01*
X66425Y-48400D02*
X66070Y-48045D01*
X68480Y-48400D02*
X68360Y-48400D01*
X68360Y-48400D02*
X66425Y-48400D01*
X65260Y-34946D02*
X65260Y-37780D01*
X65520Y-45230D02*
X65520Y-44795D01*
X65270Y-45480D02*
X65520Y-45230D01*
X66365Y-47590D02*
X67154Y-47590D01*
X66070Y-47295D02*
X66365Y-47590D01*
X67154Y-47590D02*
X67180Y-47564D01*
X62418Y-49836D02*
X62418Y-50058D01*
X63190Y-50830D02*
X63190Y-51380D01*
X62418Y-50058D02*
X63190Y-50830D01*
X69020Y-45030D02*
X68580Y-45030D01*
X69020Y-49320D02*
X69020Y-49280D01*
X69020Y-49280D02*
X69020Y-45030D01*
X67175Y-44690D02*
X66870Y-44385D01*
X67255Y-44770D02*
X67175Y-44690D01*
X68320Y-44770D02*
X67255Y-44770D01*
X68580Y-45030D02*
X68320Y-44770D01*
X65520Y-44795D02*
X65695Y-44795D01*
X66500Y-46865D02*
X66070Y-47295D01*
X66500Y-45600D02*
X66500Y-46865D01*
X65695Y-44795D02*
X66500Y-45600D01*
X63190Y-51380D02*
X63190Y-51590D01*
X69020Y-52290D02*
X69020Y-49690D01*
X69020Y-49690D02*
X69020Y-49320D01*
X68550Y-52760D02*
X69020Y-52290D01*
X64360Y-52760D02*
X68550Y-52760D01*
X63190Y-51590D02*
X64360Y-52760D01*
X65520Y-44795D02*
X66045Y-44795D01*
X66455Y-44385D02*
X66870Y-44385D01*
X66045Y-44795D02*
X66455Y-44385D01*
X65520Y-44795D02*
X64490Y-44795D01*
X64490Y-44795D02*
X63300Y-45985D01*
M02*
